<?xml version="1.0" encoding="utf-8"?>
<!-- Generator: Adobe Illustrator 15.1.0, SVG Export Plug-In . SVG Version: 6.00 Build 0)  -->
<!DOCTYPE svg PUBLIC "-//W3C//DTD SVG 1.1//EN" "http://www.w3.org/Graphics/SVG/1.1/DTD/svg11.dtd">
<svg version="1.1" id="Layer_1" xmlns="http://www.w3.org/2000/svg" xmlns:xlink="http://www.w3.org/1999/xlink" x="0px" y="0px"
	 width="40px" height="40px" viewBox="0 0 40 40" enable-background="new 0 0 40 40" xml:space="preserve">
<line fill="none" stroke="#2980B9" stroke-width="2" stroke-linecap="round" stroke-miterlimit="10" x1="1" y1="25" x2="5" y2="25"/>
<line fill="none" stroke="#2980B9" stroke-width="2" stroke-linecap="round" stroke-miterlimit="10" x1="3" y1="28" x2="5" y2="28"/>
<line fill="none" stroke="#2980B9" stroke-width="2" stroke-linecap="round" stroke-miterlimit="10" x1="4" y1="31" x2="5" y2="31"/>
<circle fill="none" stroke="#2980B9" stroke-width="2.2225" stroke-miterlimit="10" cx="16.073" cy="33.229" r="2.917"/>
<circle fill="none" stroke="#2980B9" stroke-width="2.2225" stroke-miterlimit="10" cx="32.073" cy="33.229" r="2.917"/>
<path fill="none" stroke="#2980B9" stroke-width="2" stroke-linecap="round" stroke-miterlimit="10" d="M12,33H9.5
	C8.948,33,8,32.053,8,31.5V21"/>
<path fill="none" stroke="#2980B9" stroke-width="2" stroke-linecap="round" stroke-miterlimit="10" d="M18,17h8.5
	c0.553,0,0.5-0.052,0.5,0.5V33h-8"/>
<path fill="none" stroke="#2980B9" stroke-width="2" stroke-linecap="round" stroke-linejoin="round" stroke-miterlimit="10" d="
	M27,27h12c0,0,0,0.874,0,1.833s0,2.834,0,2.834S39.125,33,38.5,33S35,33,35,33"/>
<line fill="none" stroke="#2980B9" stroke-width="2" stroke-linecap="round" stroke-linejoin="round" stroke-miterlimit="10" x1="27" y1="33" x2="29" y2="33"/>
<polyline fill="none" stroke="#2980B9" stroke-width="2" stroke-linecap="round" stroke-linejoin="round" stroke-miterlimit="10" points="
	39,27 34.406,21 27,21 "/>
<circle fill="none" stroke="#2980B9" stroke-width="2" stroke-miterlimit="10" cx="8.839" cy="10.662" r="7.661"/>
<polyline fill="none" stroke="#2980B9" stroke-width="2" stroke-miterlimit="10" points="9,7 9,12 12,12 "/>
<path fill="none" stroke="#2980B9" stroke-width="2" stroke-miterlimit="10" d="M76,17v-5.538c0,0,0.183-2.462-3-2.462
	c-4,0-25,0-25,0s-3,0-3,4s0,18,0,18s-0.172,3,3,3c2,0,26.688,0,26.688,0S76,33.938,76,31.667c0-3,0-6.667,0-6.667"/>
<path fill="none" stroke="#2980B9" stroke-width="2" stroke-miterlimit="10" d="M79,25c0,0.553-0.392,1-0.875,1h-8.25
	C69.392,26,67,25,67,22s2.392-4,2.875-4h8.25C78.608,18,79,18.448,79,19V25z"/>
<path fill="#2980B9" d="M73,22c0,0.553-0.299,1-0.666,1h-0.668C71.299,23,71,22.553,71,22l0,0c0-0.552,0.299-1,0.666-1h0.668
	C72.701,21,73,21.448,73,22L73,22z"/>
<path fill="#2980B9" d="M50,13c0,0.553-0.299,1-0.666,1h-0.668C48.299,14,48,13.553,48,13l0,0c0-0.552,0.299-1,0.666-1h0.668
	C49.701,12,50,12.448,50,13L50,13z"/>
<path fill="#2980B9" d="M56,13c0,0.553-0.299,1-0.666,1h-0.668C54.299,14,54,13.553,54,13l0,0c0-0.552,0.299-1,0.666-1h0.668
	C55.701,12,56,12.448,56,13L56,13z"/>
<path fill="#2980B9" d="M62,13c0,0.553-0.299,1-0.666,1h-0.668C60.299,14,60,13.553,60,13l0,0c0-0.552,0.299-1,0.666-1h0.668
	C61.701,12,62,12.448,62,13L62,13z"/>
<path fill="#2980B9" d="M68,13c0,0.553-0.299,1-0.666,1h-0.668C66.299,14,66,13.553,66,13l0,0c0-0.552,0.299-1,0.666-1h0.668
	C67.701,12,68,12.448,68,13L68,13z"/>
<path fill="#2980B9" d="M73,13c0,0.553-0.299,1-0.666,1h-0.668C71.299,14,71,13.553,71,13l0,0c0-0.552,0.299-1,0.666-1h0.668
	C72.701,12,73,12.448,73,13L73,13z"/>
<path fill="#2980B9" d="M50,30c0,0.553-0.299,1-0.666,1h-0.668C48.299,31,48,30.553,48,30l0,0c0-0.553,0.299-1,0.666-1h0.668
	C49.701,29,50,29.447,50,30L50,30z"/>
<path fill="#2980B9" d="M56,30c0,0.553-0.299,1-0.666,1h-0.668C54.299,31,54,30.553,54,30l0,0c0-0.553,0.299-1,0.666-1h0.668
	C55.701,29,56,29.447,56,30L56,30z"/>
<path fill="#2980B9" d="M62,30c0,0.553-0.299,1-0.666,1h-0.668C60.299,31,60,30.553,60,30l0,0c0-0.553,0.299-1,0.666-1h0.668
	C61.701,29,62,29.447,62,30L62,30z"/>
<path fill="#2980B9" d="M68,30c0,0.553-0.299,1-0.666,1h-0.668C66.299,31,66,30.553,66,30l0,0c0-0.553,0.299-1,0.666-1h0.668
	C67.701,29,68,29.447,68,30L68,30z"/>
<path fill="#2980B9" d="M73,30c0,0.553-0.299,1-0.666,1h-0.668C71.299,31,71,30.553,71,30l0,0c0-0.553,0.299-1,0.666-1h0.668
	C72.701,29,73,29.447,73,30L73,30z"/>
<path fill="none" stroke="#2980B9" stroke-width="2" stroke-linecap="round" stroke-linejoin="round" stroke-miterlimit="10" d="
	M48.58,9l19.136-6c0,0,2.487-1.141,3.284,1.313C71,5.313,71,8,71,8"/>
</svg>
