<?xml version="1.0" encoding="utf-8"?>
<!-- Generator: Adobe Illustrator 19.0.0, SVG Export Plug-In . SVG Version: 6.00 Build 0)  -->
<svg version="1.1" id="Layer_1" xmlns="http://www.w3.org/2000/svg" xmlns:xlink="http://www.w3.org/1999/xlink" x="0px" y="0px"
	 viewBox="94 -85.9 799.5 182.9" style="enable-background:new 94 -85.9 799.5 182.9;" xml:space="preserve">
<style type="text/css">
	.st0{fill:#DEE1E3;}
	.st1{fill:#FFFFFF;}
	.st2{fill:#FFE600;}
	.st3{fill:none;}
</style>
<g>
	<path d="M386.4,17.9c0.7-1.1,1.4-2.3,2.3-3.4h0.5v24.9h11.2V-2.7h-11.2l-12.6,19.2c-0.7,1.1-1.4,2.1-2.1,3.2s-1.4,2.1-2.1,3.2H372
		V-2.7h-11.2v42.1H372l6.2-8.9c2.1-3,4.1-6.2,6.2-9.1L386.4,17.9"/>
	<path d="M422.3,21.8h16.9v17.6h11.2V-2.7h-11.2v16h-16.9v-16h-11.2v42.1h11.2V21.8z M497,25.9c0-4.3-1.6-7.8-4.6-10.1
		c-3-2.3-7.1-3.7-12.1-3.7h-8.2v-15h-11.2v42.3h19.9c4.8,0,8.7-1.1,11.7-3.2C495.4,33.9,497,30.5,497,25.9 M484,29.8
		c-1.1,0.9-2.5,1.1-4.3,1.1h-7.3V20.6h7.1c1.8,0,3.4,0.5,4.6,1.4c1.1,0.9,1.6,2.1,1.6,3.9C485.6,27.5,485.2,28.9,484,29.8
		 M642.2,33.9c2.1-1.8,3.4-4.1,4.8-6.9c1.1-2.7,1.8-5.7,1.8-9.1c0-3.2-0.5-5.9-1.6-8.7c-1.1-2.5-2.7-4.8-4.6-6.6
		c-2.1-1.8-4.3-3.4-7.1-4.3c-2.7-1.1-5.7-1.6-8.9-1.8v-15.8l-10.5,4.1v11.9c-3.2,0.2-6.2,0.9-8.9,1.8c-2.7,1.1-5,2.5-7.1,4.6
		c-2.1,1.8-3.7,4.1-4.8,6.6c-1.1,2.5-1.8,5.5-1.8,8.5c0,3.4,0.5,6.4,1.6,9.1s2.5,5,4.6,6.9c2.1,1.8,4.3,3.4,7.1,4.6
		c2.7,1.1,5.7,1.6,9.1,1.8v17.8l10.7-4.1V40.4c3.2-0.2,5.9-0.9,8.7-1.8C637.9,37.3,640.2,35.7,642.2,33.9 M615.7,32.1
		c-1.6-0.2-3.2-0.5-4.6-1.1c-1.4-0.7-2.7-1.6-3.7-2.7c-1.1-1.1-1.8-2.5-2.5-4.1s-0.9-3.4-0.9-5.7c0-3.7,0.9-6.9,3-9.4s5-3.9,8.7-4.1
		V32.1z M630.6,30.9c-1.4,0.7-2.7,0.9-4.3,1.1V4.8c3.7,0.2,6.6,1.6,8.5,4.1c2.1,2.5,3,5.5,3,9.4c0,2.3-0.2,4.1-0.9,5.7
		s-1.6,3-2.5,4.1C633.3,29.3,631.9,30.2,630.6,30.9 M708.1,27c1.1-2.7,1.8-5.7,1.8-9.1c0-3.2-0.5-5.9-1.6-8.7
		c-1.1-2.5-2.7-4.8-4.6-6.6c-2.1-1.8-4.3-3.4-7.1-4.3c-2.7-1.1-5.7-1.6-8.9-1.8v-15.8l-10.5,4.1v11.9c-3.2,0.2-6.2,0.9-8.9,1.8
		c-2.7,1.1-5,2.5-7.1,4.6c-2.1,1.8-3.7,4.1-4.8,6.6s-1.8,5.5-1.8,8.5c0,3.4,0.5,6.4,1.6,9.1s2.5,5,4.6,6.9c2.1,1.8,4.3,3.4,7.1,4.6
		c2.7,1.1,5.7,1.6,9.1,1.8v17.8l10.7-4.1V40.4c3.2-0.2,5.9-0.9,8.7-1.8c2.7-1.1,5-2.5,7.1-4.6C705.3,32.1,706.9,29.8,708.1,27
		 M677,32.1c-1.6-0.2-3.2-0.5-4.6-1.1c-1.4-0.7-2.7-1.6-3.7-2.7c-1.1-1.1-1.8-2.5-2.5-4.1s-0.9-3.4-0.9-5.7c0-3.7,0.9-6.9,3-9.4
		s5-3.9,8.7-4.1V32.1z M698,24.1c-0.7,1.6-1.6,3-2.5,4.1c-1.1,1.1-2.3,2.1-3.7,2.7c-1.4,0.7-2.7,0.9-4.3,1.1V4.8
		c3.7,0.2,6.6,1.6,8.5,4.1c2.1,2.5,3,5.5,3,9.4C699.2,20.4,698.7,22.5,698,24.1"/>
	<path d="M314.8-10.9h16.5v50.3H343v-50.3h16v-9.8h-44.1v9.8H314.8z M543.9-2.4h-12.8L516,15.4V-2.7h-11.2v42.1H516V18.8l14.6,20.6
		h13.3l-16.5-22.6L543.9-2.4z M581.6,2.4c-1.8-1.8-3.9-3.4-6.4-4.3s-5.3-1.6-8.2-1.6c-3,0-5.7,0.5-8.2,1.6c-2.5,0.9-4.8,2.5-6.6,4.3
		c-1.8,1.8-3.2,4.1-4.3,6.9c-0.9,2.7-1.6,5.7-1.6,9.4c0,3.4,0.5,6.4,1.4,9.1c0.9,2.7,2.3,5,4.1,6.9c1.8,1.8,3.9,3.4,6.4,4.3
		c2.5,1.1,5.3,1.6,8.5,1.6c3,0,5.7-0.5,8.2-1.6c2.5-0.9,4.8-2.5,6.6-4.3c1.8-1.8,3.2-4.1,4.3-6.9c1.1-2.7,1.6-5.7,1.6-9.4
		c0-3.4-0.5-6.4-1.6-9.1C584.8,6.5,583.5,4.2,581.6,2.4 M575.5,23.4c-0.5,1.6-0.9,3-1.8,4.1c-0.7,1.1-1.8,2.1-3,2.7
		c-1.1,0.7-2.5,0.9-3.9,0.9c-3,0-5.3-1.1-6.9-3.4s-2.5-5.5-2.5-9.6c0-3.7,0.7-6.6,2.3-9.1c1.6-2.5,3.9-3.7,6.9-3.7
		c3.2,0,5.5,1.1,7.1,3.7c1.6,2.3,2.5,5.5,2.5,9.4C575.9,20.2,575.7,22,575.5,23.4"/>
	<path d="M750.1,6.7c5.7,0,10.1,1.4,13.5,4.1c3.2,2.7,4.8,6.9,4.8,12.3c0,5.3-1.6,9.4-4.8,12.1s-7.5,4.1-13.3,4.1h-23.1v-56.2h35.9
		v5.9h-29.5V6.6h16.5V6.7z M762,22.9c0-3.4-0.9-5.9-3-7.8c-2.1-1.8-4.8-2.7-8.5-2.7h-16.9v21h16.9c3.7,0,6.6-0.9,8.5-2.7
		C761.1,29.1,762,26.4,762,22.9L762,22.9z M793.1-3.6c4.8,0,8.7,1.1,11.2,3.4s3.9,5.7,3.9,10.3v29.3h-5.9v-4.1H802
		c-2.3,2.1-4.6,3.4-6.6,3.9c-2.3,0.7-4.3,0.9-6.4,0.9c-1.6,0-3.4-0.2-5-0.7s-3.2-1.4-4.6-2.3c-1.4-1.1-2.5-2.5-3.2-4.1
		c-0.9-1.6-1.1-3.7-1.1-6.2c0-2.1,0.5-3.9,1.1-5.5c0.7-1.6,1.8-3,3.2-4.3c1.4-1.1,3-2.1,5-2.7c1.8-0.7,4.1-0.9,6.4-0.9
		c1.8,0,3.7,0.2,5.5,0.5c1.8,0.5,3.9,1.1,5.9,2.3v-5.3c0-3.2-0.9-5.7-2.5-7.1s-4.1-2.3-7.3-2.3c-2.1,0-3.9,0.2-5.7,0.7
		s-3.7,1.1-5.3,2.1l-2.1-4.8c2.1-0.9,4.1-1.8,6.4-2.3C787.9-3.1,790.4-3.6,793.1-3.6z M802.3,21.3c-1.8-0.9-3.4-1.8-5.3-2.3
		c-1.8-0.7-3.9-0.9-6.2-0.9c-2.7,0-5,0.7-6.9,2.3c-1.8,1.4-2.7,3.7-2.7,6.4c0,2.7,0.9,4.8,2.5,6.4c1.6,1.4,3.9,2.1,6.9,2.1
		c2.3-0.2,4.3-0.7,6.4-1.8c2.1-1.1,3.9-2.5,5.5-3.9L802.3,21.3L802.3,21.3z M845.9,39.4V20h-22.2v19.4h-6.2V-2.9h6.2v17.4h22.2V-2.9
		h6.2v42.3H845.9z M892.8-2.7l-19,19.4l19.7,22.6h-7.3l-18.3-21.5v21.5h-6.2V-2.8h6.2v18.7L886-2.8h6.8V-2.7z"/>
	<g>
		<path class="st0" d="M151.8,46.3c2.5-2.1,4.6-3,4.6-8c-3.9,2.1-14.9,1.8-19.4-4.3c-1.4-1.8,0-2.7,1.4-1.4c3.2,3.4,8.9,1.8,11,0.9
			c-0.2-1.1-1.4-2.7-2.1-3.4c0.7-0.7,3-1.8,3.4-3.9c-1.1-0.7-5.9-1.1-5.9-1.1c0.7-0.7,1.6-1.8,1.1-4.3c-4.8,1.4-10.5-0.5-11.9-2.3
			s0-3.4,1.1-2.3c2.3,2.5,13.9,5.3,18.3,0.9c-1.6-0.5-3.4-1.8-3.7-2.7c4.1-0.5,7.1-2.7,7.5-5.7c-2.3,0-6.4-0.2-7.8-1.1
			c1.8-0.7,3.2-1.4,3.7-3.7c-7.3-0.5-8-5.9-8-6.9c4.8,2.7,13.3,1.6,11-5.3c-3.9-0.2-8-6.6,3-12.6c9.8-5.3,21.3-11.2,20.1-20.6
			c-0.7-6.2-10.7-10.3-11.9-13.3c-4.1,2.1-5,4.3-3.2,8.2c0,0-9.4,0.9-10.1-4.8c-0.2-2.5,1.4-5,3.2-6.9c-1.1,0-8-1.8-10.3,3.9
			c-3.9-2.7-7.3-2.5-10.1,0.2c4.3,2.5,6.9,11.2,13.9,13.7c-5,2.7-13,1.6-17.8-6.6c-4.3,6.6-7.1,13.3,2.5,20.3
			c-16.9,8-16.7,23.1-31.8,30.2c1.6,4.1,4.8,4.1,8.9,3.4c-6.6,8.5-0.9,17.4-11.2,21c0.9,3.4,3,6.2,6.6,5.3c-1.1,1.6-1.8,1.6-3.7,3.4
			c5.7,3.7,12.3,0.9,13.9-10.5c0.2-2.1,3-0.7,2.1,1.1c-6.4,13.5,9.8,23.5,4.1,33.4c5-0.2,8.9-0.7,11-2.3c1.1,2.1,1.6,4.1,1.4,6.2
			c2.7-0.5,3.9-2.3,4.1-4.1c1.8,5.3,8.5,11.2,19,11.2C154.5,63.4,159.8,55.4,151.8,46.3 M141.5,56.1l-2.3,3.9
			c-0.9-2.5-2.3-5-3.2-7.1c-1.8,3.7-4.6,3.9-7.3,3.9c0.7-8.9-10.5-17.8-5.7-28.1c0.9-2.1,0.5-4.6-1.8-5.5
			c-7.5-3.9-4.1,12.1-11.7,12.6c1.4-1.8,2.1-5.5,2.3-5.9c-1.6,0.5-5.5,2.7-7.1-0.2c4.3-2.3,5.7-5.9,6.4-9.6c0.9-4.6,1.4-6.6,2.1-8.5
			c0.9-2.1,2.5-3.7,5.5-7.8c-0.7,0.2-9.1,1.8-11.2,0.9c14.6-8.9,11.4-20.3,33.6-30.6c-5.9-4.3-11.9-7.8-7.5-16
			c6.2,7.3,17.6,4.8,24,1.4c-6.2-1.1-14.2-6.6-16-12.8c2.3-0.5,5.3,2.1,7.1,3.4c0.9-2.3,1.1-4.8,3.9-5.5
			c-3.7,7.8,3.4,11.9,10.3,11.9c1.1,0,5.5-0.5,5.5-0.5c-0.7-1.4-3.7-5.5-1.4-7.1c1.6,1.6,3.7,2.7,5.5,4.1
			c13.3,10.3-6.4,19.9-14.4,24c-12.6,6.9-9.1,14.9-3.9,16.9c0,0.9-0.7,1.4-1.4,1.6c-3.7,1.1-7.1-1.4-10.1-3c0.2,5-0.2,9.8,5.5,12.8
			l-3.9,1.4c3.4,2.5,4.3,3.9,8.2,4.3c-1.8,0.9-4.1,0.9-6.2,1.1c0.5,1.4,0.9,3.2,2.1,4.6c-8.2,0.9-11.4-3.7-13.9-3.4
			c-5.5,0.5-5,10.5,8.2,10.5l-1.4,2.3c0,0,2.5,1.4,4.8,1.8c-0.9,0.7-1.8,1.6-2.5,2.5l2.1,1.8c-5.5,0.9-6.9-4.8-10.5-2.1
			c-5.3,4.3,6.4,13.3,17.8,11.9c-0.9,1.1-3.7,3-4.8,3.9c9.1,8.7,4.6,16.9,8.5,23.1C148.8,68.2,142.9,62.5,141.5,56.1 M126.9,24.3
			c1.8,2.1,4.3,2.3,8.7,1.8c-4.8-0.7-7.5-1.8-9.1-5c-0.2-1.6-0.5-3.4-0.5-5.3c-0.2-5,1.6-11.2,5-17.8c0,4.1,3.2,10.7,10.7,11.9
			c-6.6-3-10.5-9.4-8.5-15.8c1.4-2.3,3-4.6,4.6-6.9c0.9-1.1,1.8-2.3,2.5-3.2c-0.9,3.2,3,6.6,5.7,7.1c-1.4-1.4-4.3-5.9,2.5-13.3
			c-2.1,0.9-4.1,2.3-5.7,3.4c12.8-13.7,23.3-14.2,28.1-21c-6.9,4.8-25.4,7.3-33.6,5c4.6,3,15.5,2.7,18.3,2.3
			c-8.9,8.7-28.6,17.8-32,25.8c4.8-5.3,7.8-6.2,12.1-7.5c-3.2,4.8-6.2,9.1-8.2,14.2c-5.3,11.4-12.1,11.4-12.6,20.8
			c2.3-7.3,7.3-9.1,10.5-13.9c-0.7,3-0.9,6.4-0.7,10.3c0.2,4.3,0.9,8,2.3,11.2c-0.2,4.6,0,12.6,5.5,17.8c-3.7-4.6-4.3-11.9-4.1-14.9
			c4.1,8,16,19,21.7,26.5C143.8,48.3,129.9,37.1,126.9,24.3 M257.9-14.1c4.1,1.4,7.3,2.3,12.1,7.5c-3.4-8-23.1-17.1-32-25.8
			c2.7,0.5,13.7,0.9,18.3-2.3c-8.2,2.3-26.8-0.2-33.6-5c4.8,6.9,15.3,7.3,28.1,21c-1.6-1.4-3.9-2.5-5.7-3.4
			c7.1,7.5,3.9,11.9,2.5,13.3c2.5-0.5,6.4-3.9,5.7-7.1c0.9,0.9,1.6,2.1,2.5,3.2c1.8,2.3,3.2,4.6,4.6,6.9c2.1,6.4-1.8,12.8-8.5,15.8
			c7.3-1.1,10.7-7.5,10.7-11.9c3.4,6.6,5.3,12.8,5,17.8c0,1.8-0.2,3.7-0.5,5.3c-1.6,3.2-4.3,4.3-9.1,5c4.3,0.2,6.6,0,8.7-1.8
			c-3,12.8-17.1,24-22.9,33.6c5.7-7.5,17.6-18.5,21.7-26.5c0.2,3-0.5,10.3-4.1,14.9c5.3-5.3,5.7-13,5.3-17.8
			c1.4-3.4,2.3-7.1,2.3-11.2c0.2-3.9-0.2-7.3-0.7-10.3c3.4,4.8,8.2,6.6,10.5,13.9c-0.5-9.4-7.5-9.6-12.6-20.8
			C264.1-5,261.1-9.3,257.9-14.1 M280.5,6.9c4.1,0.7,7.3,0.7,8.9-3.4c-15.1-7.1-15.1-22.4-32.5-30.2c9.6-7.1,7.1-13.7,2.5-20.3
			c-4.8,8.2-12.8,9.4-17.8,6.6c7.1-2.5,9.6-11.2,13.9-13.7c-2.7-2.7-5.9-3-10.1-0.2c-2.1-5.7-9.1-3.9-10.3-3.9
			c1.8,1.8,3.7,4.3,3.2,6.9c-0.7,5.7-10.1,4.8-10.1,4.8c1.8-3.9,1.1-6.2-3.2-8.2c-1.4,3.2-11.2,7.3-11.9,13.3
			c-0.9,9.6,10.3,15.3,20.1,20.6c11,5.9,6.9,12.3,3,12.6c-2.3,6.9,6.2,8,11,5.3c0,0.9-0.7,6.4-8,6.9c0.7,2.1,1.8,2.7,3.7,3.7
			c-1.4,1.1-5.7,1.1-7.8,1.1c0.2,3,3.4,5.3,7.5,5.7c-0.2,0.9-2.1,2.3-3.7,2.7c4.3,4.3,16,1.4,18.3-0.9c1.1-1.1,2.5,0.5,1.1,2.3
			c-1.4,1.8-7.1,3.7-11.9,2.3c-0.5,2.7,0.5,3.7,1.1,4.3c0,0-4.6,0.5-5.9,1.1c0.5,2.1,2.7,3.2,3.4,3.9c-0.7,0.7-1.8,2.3-2.1,3.4
			c2.1,0.9,8,2.5,11-0.9c1.4-1.4,2.7-0.5,1.4,1.4c-4.6,6.2-15.5,6.4-19.4,4.3c0,5,2.1,5.9,4.6,8c-8,9.1-2.7,17.1-8.2,25.1
			c10.5,0,17.1-5.7,19-11.2c0.2,1.8,1.1,3.7,4.1,4.1c-0.2-2.1,0.5-4.1,1.4-6.2c2.1,1.8,5.9,2.1,11,2.3c-5.7-9.8,10.5-19.9,4.1-33.2
			c-0.9-2.1,1.8-3.2,2.1-1.1c1.6,11.4,8.2,13.9,13.9,10.5c-1.6-1.8-2.5-1.8-3.4-3.4c3.9,0.9,5.7-1.8,6.6-5.3
			C281.7,24.3,287.2,15.4,280.5,6.9 M281.4,29.8c0.2,0.2,0.7,4.1,2.3,5.9c-7.5-0.5-4.1-16.2-11.7-12.6c-2.1,1.1-2.7,3.7-1.8,5.5
			c5,10.3-6.4,19.2-5.7,28.1c-2.7,0-5.7,0-7.5-3.9c-0.9,1.8-2.3,4.6-3.2,7.1l-2.3-3.9c-1.4,6.4-7.3,12.1-15.3,12.8
			c3.9-5.9-0.7-14.2,8.5-23.1c-1.1-0.9-3.9-2.7-4.8-3.9c11.4,1.4,23.1-7.5,17.8-11.9c-3.4-2.7-5,3-10.5,2.1l2.1-1.8l-2.5-2.5
			c2.3-0.2,4.8-1.8,4.8-1.8l-1.4-2.3c13.3,0,13.7-10.3,8.2-10.5c-2.5-0.2-5.7,4.6-13.9,3.4c1.1-1.4,1.4-3.2,2.1-4.6
			c-2.1-0.2-4.3-0.2-6.2-1.1c3.9-0.5,5-1.8,8.2-4.3l-3.9-1.4c5.5-2.7,5.3-7.8,5.5-12.8c-3,1.6-6.4,4.3-10.1,3
			c-0.9-0.2-1.4-0.7-1.4-1.6c5.3-2.1,8.7-10.1-3.9-16.9c-8-4.3-27.7-13.9-14.4-24.2c1.8-1.4,3.9-2.7,5.5-4.1
			c2.1,1.6-0.7,5.5-1.4,7.1c0,0,4.3,0.5,5.5,0.5c6.9,0,13.9-4.1,10.3-11.9c2.7,0.5,3,3.2,3.9,5.5c1.8-1.1,4.8-3.7,7.1-3.4
			c-1.8,6.2-9.8,11.4-16,12.8c6.2,3.4,17.8,5.9,24-1.4c4.3,8.2-1.6,11.7-7.5,16c22.4,10.1,19,21.5,33.6,30.6
			c-1.8,0.9-10.3-0.9-11.2-0.9c3.2,4.1,4.6,5.9,5.5,7.8c0.9,1.8,1.4,3.9,2.1,8.5c0.7,3.7,2.1,7.3,6.4,9.6
			C286.9,32.5,283,30,281.4,29.8 M175.4,54.7l3.2-2.7l-0.5-0.9c-0.5-0.7-0.2-0.7,0.2-0.9l1.6-1.1c0.5-0.2,0.7-0.2,1.4-0.2l5,1.1H181
			c-1.1,0-1.6,0.5-2.1,1.4l-0.5,0.7l-1.4,2.7c-0.5,0.9-0.7,2.3,0.5,3.7l0.9,1.1l-2.1,3.9h1.6l1.4-2.7c0,0,2.1-1.8,2.5-3.9
			c-0.7-0.5-0.9-0.7-0.7-1.4l0.7-1.4c0.2-0.5,0.2-0.7,0.9-0.5l5.3,1.1c0.7,0.2,1.6,0.5,2.3-0.7c0.7-1.1,0.9-0.9,2.5-0.9l2.7,0.2
			c3.7,0.5,7.3-0.7,8.9-1.6c0.5,1.1,1.6,2.1,2.1,3c0.2,0.2,0,0.7-0.2,1.4l-3.2,7.5h4.6l2.7-6.6c0.2-0.7,0.7-1.1,0.9-1.4l-1.6,8h4.6
			l1.1-8c0.2-1.8,0-2.3-0.7-3c-1.8-1.6-1.8-5-2.5-7.1c0.2-0.2,0.7-0.2,1.1-0.2c0.9,0,1.8,2.5,3,4.3c2.3,3.2,5.5,6.9,9.1,1.8
			c-0.5-0.7-0.7-1.1-1.1-1.6l-0.9-1.1c-0.7-0.7-3.4-3.9-4.6-5c-2.7-2.7-6.9-2.3-8.5-0.9c-3.7-1.8-7.5,0-8.5,0l-6.4-0.5
			c-0.2,0-0.7-0.2-1.1-0.7l1.1-0.5c-1.1-4.6-3.9-8.5-8.7-9.1c0,0-0.2-1.4-0.9-1.8l-1.4,1.6c-0.5,0-0.9,0.2-1.1,0.2l-6.2-2.3l4.6,4.8
			c0,0-2.5,3.4-3.2,4.1c-0.5,0.7-0.5,1.1,0,1.8l0.9,1.1c0.5,0.7,0.9,0.7,1.8,0.2l0.9-0.5c0.5-0.5,1.8,0.5,2.5-0.2
			c-0.5,1.4-0.7,2.5-0.7,3.7l-4.1-0.5c-0.9-0.2-1.4,0-1.8,0.5l-3.7,2.7c-1.1,0.9-1.6,2.5-0.9,3.9L175.4,54.7L175.4,54.7z
			 M209.6,55.4l-2.7,6.9h-1.8l2.7-6.6c0.2-0.9-0.2-1.4-0.9-2.3c1.1,0.7,1.8,0.9,3,1.4C209.9,55.2,209.9,55.2,209.6,55.4 M182.4,40.3
			l-0.9,0.5c-0.5,0.2-0.9,0.5-1.4-0.2l-0.5-0.5c-0.2-0.2-0.2-0.7,0.2-1.1l3.4-4.1l-3-2.3l4.1,1.6l1.6-1.8c0.5,0.5,0.2,1.4,0.2,1.4
			c1.6,0,6.4,2.3,6.6,8.2c0,0,1.1,1.6,2.5,1.6l7.1,0.5c1.1,0,4.1-2.3,7.8-0.2c0.9-0.7,2.1-1.1,3-1.1c3.2-0.2,5.7,2.1,7.5,4.3
			c1.4,1.6,3.2,4.3,3.2,4.3c-0.7,0.9-1.6,1.1-2.3,0.9c-0.9-0.5-1.4-1.4-1.6-2.3c-0.5-1.8-2.3-3.2-2.3-3.2c0.7,1.1,0.7,2.5,1.1,3.7
			c-2.7-2.7-3.2-6.2-5.3-6.6c-0.9-0.2-1.8,0.2-2.7,1.1c0.9,2.3,0.9,4.8,1.8,6.6c0.7,1.4,0.9,1.4,1.1,1.6c0.9,0.7,0.5,1.6,0.2,2.3
			l-1.1,6.6h-1.8l1.1-6.4c0.5-2.1-5-2.1-8-5.7c-2.3,2.7-9.1,2.1-11.9,1.6c-1.1-0.2-2.3,0-3,1.1c-0.5,0.7-0.9,0.5-1.4,0.5l-5.3-1.1
			c-0.9-0.2-1.4,0-1.8,0.9l-1.1,2.3c-0.2,0.5-0.2,0.9,0.2,1.4l0.5,0.5c-0.2,1.1-1.4,1.8-1.4,1.8l-0.7-1.1c-0.5-0.7-0.7-1.6-0.2-2.5
			l1.6-3.7c0.2-0.5,0.5-0.9,1.4-0.9h6.6l-2.1-3.2c-1.6-2.5,0.9-6.9,0.7-8.9C186.3,41.2,182.9,40.1,182.4,40.3 M175.4,48.5l3.2-2.3
			c0.5-0.5,0.9-0.7,1.6-0.7l4.3,0.7c0.2,1.1,0.9,2.1,0.9,2.1l-4.6-0.9c-0.7,0-0.9,0-1.4,0.5l-2.3,1.6c-0.5,0.5-0.5,0.9-0.2,1.4
			l0.5,0.7l-1.6,1.1l-0.7-1.1C174.4,50.4,174.4,49.5,175.4,48.5 M188.8-35.4c1.6,1.1,4.8,2.5,4.8,2.5V-35l-6.6-2.5
			C187-37.4,187-36.7,188.8-35.4 M193.6-37.9V-40l-7.5-2.7c0,0,0.9,0.9,2.7,2.3C190.4-39,193.6-37.9,193.6-37.9 M193.6-42.2v-2.1
			l-8.2-3c0,0,1.6,1.4,3.4,2.5C190.4-43.6,193.6-42.2,193.6-42.2 M216.7-15h8.5c-0.5-1.1-1.6-2.5-4.1-2.5
			C218.6-17.5,217.2-16.2,216.7-15 M207.8-47.3l-8.2,3v2.1c0,0,3-1.1,4.8-2.5C206.2-46.1,207.8-47.3,207.8-47.3 M206.2-37.4
			l-6.6,2.5v2.1c0,0,3-1.1,4.8-2.5C206.2-36.7,206.2-37.4,206.2-37.4 M207.1-42.5l-7.5,2.7v2.1c0,0,3-1.1,4.8-2.5
			C206.2-41.5,207.1-42.5,207.1-42.5 M172.2-17.5c-2.5,0-3.7,1.1-4.1,2.5h8.5C176-16.2,174.7-17.5,172.2-17.5"/>
		<path class="st0" d="M213.3-52.7c0-4.8-8-8.9-16.7-8.9s-16.7,4.3-16.7,8.9l0.2,1.1l3.4,20.1l-16.4,9.6c-1.8,1.1-3.9,3.9-4.3,6.9h3
			c0.5-3,2.7-5.9,7.1-5.9c3.9,0.2,6.2,2.5,8.2,5.9l0.7,0.9l0.9,1.4h-24.5c1.8,3.7,3.4,7.3,3.4,11.4v50.5c0,13,10.1,19.2,20.8,19.2
			c8.5,0,9.4-0.5,14.2,4.3c4.6-4.6,5.7-4.3,14.2-4.3c10.7,0,20.8-6.2,20.8-19.2V-1.3c0-4.1,1.6-8,3.4-11.4h-24.5l0.9-1.4l0.7-0.9
			c2.3-3.2,4.6-5.7,8.2-5.9c4.1-0.2,6.4,3,7.1,5.9h3c-0.2-3-2.5-5.7-4.3-6.9l-16.5-9.6l3.4-20.1L213.3-52.7L213.3-52.7z M183.4-50.5
			l12.3,4.1V-27l-9.1-4.8L183.4-50.5z M186.3-9.5c1.6,2.3,4.3,3.9,7.3,4.6c0.2,1.1,0.9,2.5,2.1,3.4c-0.5,3.4,0.9,6.6,4.6,7.5
			c0.5,1.8,1.4,3,3.2,3.7l-2.5,3c-0.9,1.1-2.3,1.6-3.4,1.4l-11.4-1.4c0.5-1.4-0.9-2.7-4.6-2.1L186.2-2l-2.7-5.9l-5.3,4.6V10
			l-2.3-1.1c-3-1.4-3.9,4.1-0.9,4.1h1c0,0.5,0,1.1,0.5,1.4c-0.5,0.2-0.7,1.1,0,1.6c-0.7,0.2-0.7,1.4-0.2,1.8
			c-0.7,0.9-0.7,3.2,1.4,3.7c1.6,0.5,2.7-1.4,3-2.3l17.8,5.5c2.5,0.7,4.3,0.2,6.4-1.6l4.6-4.1c-0.7,2.7,0.5,5,2.5,5.9
			c0,0-0.2,2.3-0.2,3.4h-46.7V-1.2c0-2.7-0.7-5.5-1.8-8h23.1L186.3-9.5L186.3-9.5z M205.5,1.7c-0.9,1.8-0.9,4.1,0.2,5.9L205,8.3
			c-3.4-0.5-4.8-5.5-4.8-5.5v1.4c-2.1-0.7-3.2-2.5-3.2-4.8c0.7,0.5,1.6,0.7,2.5,0.9l0.2-1.4c-2.3-0.5-3.7-1.8-4.3-3.7h-0.2h1.4
			c1.4,0,2.7-0.2,3.9-0.7c0.9,1.4,2.7,2.3,4.3,2.5C204.8-1.5,204.8,0.1,205.5,1.7 M210.6,14.9c-0.2,0.5-0.7,0.9-0.7,1.6l-1.8,1.8
			c0.5-2.7-1.4-5.9-3.2-7.3l2.1-2.1l0.5,0.5C206.4,11.3,207.8,14.7,210.6,14.9 M201.6,14.2l1.6-1.6c1.6,1.4,3.7,4.3,3,7.3l-1.6,1.6
			c-0.2,0.2-0.7,0.7-1.1,0.9C204.4,19.7,203,15.8,201.6,14.2 M198.2,15.4c0.7,0,1.1,0,1.8-0.2c1.1,1.6,2.1,5.5,0.7,8
			c-0.7,0-1.6-0.2-2.3-0.2l-0.7-0.2C198.9,20.9,198.7,17.4,198.2,15.4 M194.3,14.9l2.3,0.2c0.2,1.8,0.2,5-1.1,6.6l-2.5-0.6
			C194.1,19.7,194.6,16.5,194.3,14.9 M189.8,14.5l2.7,0.2c0.2,1.4-0.2,4.6-1.1,5.9l-2.7-0.7C189.5,18.6,190,16.1,189.8,14.5
			 M179,13.8c-1.1,0.5-1.8-0.5-1.8-1.1c2.5-0.9,3.4-0.2,4.1,0.2c0.7,0.5,1.1,1.6,2.1,2.3c-0.2,0.9-0.5,2.5-0.9,3.4
			c-2.5-0.7-2.5-2.7-1.6-4.1C180.6,13.6,180.2,13.3,179,13.8 M177.4,18.6c0,0,0.7,0.2,1.6,0.5c0,0.5-0.5,0.9-1.1,0.9
			C177.4,19.7,177.2,19,177.4,18.6 M174.9,11.5c-0.7-0.5-0.2-1.4,0.2-1.4c0.7,0,1.8,0.9,2.7,1.4C177.9,11.5,175.4,11.7,174.9,11.5
			 M177.4,16.5c0.5,0.5,2.1,0.2,2.1,0.2v0.2C179,18.1,177,17.7,177.4,16.5 M179.5,15.6c-1.1,0.5-2.3-0.2-2.1-0.9
			c0.5,0.5,2.1,0.2,2.1,0.2V15.6z M181.3,2.1l-2.3,8l0.7-12.8l3.4-3l1.8,3.9l-4.3,12.6l1.1-8.5C181.8,1.7,181.3,1.7,181.3,2.1
			 M181.5,12c0,0,2.5-0.2,3.2,0.2c0.5,0.2,0.2,1.1-0.5,0.9C183.4,12.9,181.5,12,181.5,12 M185.2,13.8l2.7,0.2
			c0.2,1.4-0.2,3.9-1.1,5.3l-2.5-0.5C185,17,185,15.6,185.2,13.8 M227.9,49.2c0,6.2-2.7,10.7-7.5,13.5l1.6-3.4h-1.6l-2.3,4.3
			c-2.3,0.9-4.8,1.4-7.5,1.4c-8.7,0-11,0.5-14.2,3.4c-3.2-3.2-5.5-3.4-14.2-3.4c-2.7,0-5.3-0.5-7.5-1.4l2.3-4.3h-1.6l-1.8,3.7
			l-1.4-0.7l1.6-3.2h-1.6l-1.1,2.3c-3.7-2.7-5.9-7.1-5.9-12.3V29.7h62.9v19.5H227.9z M229.8-9.5c-0.9,2.5-1.8,5.3-1.8,8V28h-3.4
			c-1.6-1.6-3-6.6-3-6.6c-0.9,1.8,0.2,5.5,1.1,6.6h-4.3c-1.1-1.4-2.1-6.6-2.1-6.6c-1.4,1.6-0.5,5.5,0.2,6.6h-3
			c-0.2-2.1,0.5-4.3,0.5-4.3c-1.6-0.2-3.2-1.1-3.2-2.7c0.7,0.7,1.1,0.7,2.1,0.7l1.1-0.9c-4.1,0.2-4.3-4.3-1.1-6.6
			c-3.2,0-5.7-1.8-4.6-5.3c-2.3-1.1-3.2-5.3-1.4-6.9c-1.1-1.4-1.4-4.1-0.7-5.9c-1.6,0-3.4-0.7-4.6-1.8h-0.2c2.1-0.9,3.9-2.1,5-3.9
			L229.8-9.5L229.8-9.5L229.8-9.5z M217.2-23.7c-3.4,0.7-6.4,4.8-8.7,8.5l-0.2,0.5h-2.5v0.5c-0.2,3-3,6.9-9.1,6.9
			c-2.7,0-5-0.9-6.4-2.1c-1.4-0.9-2.1-2.3-2.5-3.4c-0.2-0.5-0.2-0.9-0.2-1.4v-0.5H185l-0.2-0.5c-2.5-3.7-5.3-8-8.7-8.5l9.4-5.5
			l11.4,6.2l11.4-6.2L217.2-23.7L217.2-23.7z M206.7-31.7l-9.1,4.8v-19.2l12.3-4.1L206.7-31.7L206.7-31.7z M196.6-48.4l-13.5-5.3
			c1.1-2.7,6.4-5,13.5-5c7.1,0,12.3,2.3,13.5,5L196.6-48.4z M226.6,9.7V8.3c-4.6,0-5.5-5.5-5.5-5.5C219.7,6.7,223.1,9.7,226.6,9.7
			 M220.9,18.6l-0.5-1.4c-3.9,0.9-5.9-5-5.9-5C213.3,16.5,217.6,19.7,220.9,18.6 M223.6,13.1c-4.6,0.7-6.6-4.6-6.6-4.6
			c-0.5,3,1.4,5.9,4.3,6.2c-0.7,3.9,3,5.7,5.9,4.3l-0.5-1.4C224.3,18.6,221.8,15.8,223.6,13.1 M220.9-2.4v-1.4
			c-6.2-1.4-5.5-5.5-5.5-5.5C214-5.4,217.4-2.4,220.9-2.4"/>
		<path class="st0" d="M182.2,59.1l-2.3,4.6h1.6l2.3-4.6H182.2z M185.4,59.1l-2.3,4.6h1.9l2-4.6H185.4z M198.7,59.1l-2.3,4.6h1.6
			l2.3-4.6H198.7z M201.9,59.1l-2.1,4.6h1.6l2.1-4.6H201.9z M195.2,59.1l-2.1,4.6h1.6l2.3-4.6H195.2z M214.7,63.6h1.6l2.3-4.6h-1.8
			L214.7,63.6z M188.6,59.1l-2.1,4.6h1.6l2.3-4.6H188.6z M192,59.1l-2.3,4.6h1.8l2.1-4.6H192z M184.5,35.3c-0.2,0-0.5,0.2-0.5,0.7
			s0.2,0.7,0.5,0.7c0.2,0,0.7-0.2,0.7-0.7C185.2,35.7,185,35.3,184.5,35.3"/>
		<path class="st0" d="M196.6-64.6c6.9,0,12.1,2.3,15.1,4.6c0,0,0.9-5.5,3.9-10.1l-5.5,0.7l-2.7-6.2l-5.5,3l-5.3-5.3l-5.3,5.3
			l-5.5-2.7l-3,6.2l-5.5-0.7c3,4.8,3.9,10.1,3.9,10.1C184.5-62.3,189.8-64.6,196.6-64.6 M183.8-67.1l2.7-5.5l4.8,2.5l5.3-5.3
			l5.3,5.3l4.8-2.5l2.5,5.5l3.2-0.5c-0.9,1.6-1.4,3-2.1,4.8c-3.4-2.1-8.7-3.7-13.9-3.7c-5.3,0-10.5,1.6-13.9,3.7
			c-0.7-1.8-1.1-3.2-2.1-4.8L183.8-67.1z M202.1-75.6c0.7,0,1.6-0.5,1.6-1.4c0-0.7-1.1-3-1.1-3s-1.6,2.1-1.6,2.7
			C200.7-76.3,201.4-75.6,202.1-75.6 M211-72.4c0.7,0.5,1.6,0,2.1-0.7s0.2-3,0.2-3s-2.3,1.1-2.7,1.8C210.1-73.6,210.3-72.6,211-72.4
			 M191.1-75.6c0.9,0,1.4-0.7,1.4-1.6c0-0.7-1.8-2.7-1.8-2.7s-1.4,2.3-1.1,3C189.5-76.1,190.2-75.6,191.1-75.6 M182-72.4
			c0.9-0.2,1.1-1.1,0.7-1.8c-0.5-0.7-2.7-1.8-2.7-1.8s-0.2,2.3,0.2,3C180.6-72.2,181.3-72,182-72.4 M289.4-23.3
			c1.8-0.7,3.4-2.5,4.1-4.1c-4.8-0.7-17.8-6.2-28.4-1.6c3.9-3.7,7.5-4.3,7.8-9.6c1.6,1.1,4.3,1.8,5.9-0.9c-1.1-3.2-3.9-0.7-4.3-1.6
			c-0.5-1.1,3.4,0.5,4.3-3.9c-3.2-1.1-4.1,1.4-4.6,0.9s2.1-1.6,0.2-5c-3.2,1.8-1.6,4.1-2.3,4.3c-0.9,0.2-0.2-2.3-3.9-2.1
			c-0.5,3.9,3.4,3.9,2.7,4.6s-1.6-2.3-4.3-0.7c0,3.2,2.5,4.8,5.3,4.1c-0.5,5.9-5.9,4.8-9.8,11.4c8.5,4.3,12.3,12.1,17.8,17.4
			c1.8-1.1,4.8-6.6,4.8-6.6c5.7,4.3,9.8,0,9.8,0C292.4-18.9,292.4-20.5,289.4-23.3 M281-22.1c0.7,1.4,1.8,5.9-1.1,9.4
			c-3.2-6.4-7.5-11.9-11.2-14.2c-0.7-0.5,0.5-1.4,2.5-1.6c6.6-1.1,14.4,1.6,18.1,2.5c-1.6,1.4-3.2,1.8-4.8,2.1
			c2.7,2.3,4.6,4.1,5.9,6.2C288.1-17.1,286.7-18.7,281-22.1"/>
		<path class="st0" d="M195,81.9l-3.7-0.2l-0.5,1.6h0.5c0.2,0,0.2-0.2,0.2-0.5c0,0,0.7-0.2,1.4,0l1.6,0.2c-0.9,1.8-3.4,3.7-3.2,5
			c0,0.7,0.7,0.9,1.1,0.7c0.7,0,0.9-0.5,1.1-1.4c0.5-1.8,1.4-3.4,2.1-5.5L195,81.9L195,81.9z M197.5,84.2v-1.1h3.2l-0.2-1.4
			c-0.9,0-2.3,0.2-3.4,0.2l-0.2,2.5c1.6,0,2.5,0.7,2.5,2.1c0,0.7-0.5,1.6-1.1,1.8h-0.5c-0.2-0.2,0-0.5,0-0.9s-0.5-0.7-0.9-0.7
			c-0.5,0-0.7,0.5-0.7,0.9c0,0.9,1.4,1.1,2.1,1.1c1.4,0,2.7-0.7,2.7-2.3C201.2,84.7,199.1,84.2,197.5,84.2 M204.6,81.7
			c-1.1,0-2.1,0.9-2.1,2.1c0,1.8,2.1,2.5,3.4,1.8c0.2,1.4,0,2.5-0.7,2.5c-0.5,0-0.5-0.5-0.5-0.7c-0.2-0.5-0.5-0.7-0.9-0.5
			c-0.7,0-0.7,0.5-0.7,0.7c0.2,0.7,1.1,0.7,1.6,0.7c1.8-0.2,2.7-1.6,2.7-3.2C207.6,83.3,206.4,81.7,204.6,81.7 M205.3,85.1
			c-1.1,0-1.4-1.8-1.4-2.7c0-0.2,0.2-0.7,0.5-0.7c1.1,0,1.4,2.5,1.4,3.2C205.8,85.1,205.5,85.1,205.3,85.1"/>
		<path class="st0" d="M188.6,81.2c-0.2,0.2-0.9,1.1-2.7,2.5l0.2,0.2c0.2,0,0.5-0.2,0.9-0.5l-0.9,3.4c0,0.2-0.2,0.2-0.5,0.2H185v0.5
			l3.2,0.7v-0.5l-0.5-0.2c-0.2,0-0.2-0.2-0.2-0.5l1.6-5.9h-0.5V81.2z M225.9,76.7v-7.3c-5.5,2.5-12.8,4.6-21.9,5.5l-0.5,2.5
			c0.7,0,1.8,0.2,3,0.2c-3.4,0.5-7.8,0.7-10.3,0.7s-6.9-0.2-10.3-0.7c1.4,0,2.3-0.2,3-0.2l-0.5-2.5c-9.1-0.9-16.2-3-21.9-5.5v7.3
			l-7.5,3.2c5.7,3,12.1,5.3,19.7,7.3l-0.9,3c4.3,1.1,11.2,2.5,18.3,2.5s13.9-1.4,18.3-2.5l-0.9-3c7.5-1.8,13.9-4.3,19.7-7.3
			L225.9,76.7z M163.7,80.1l5-2.1v-5.9c3.2,1.4,7.5,2.5,13.7,3.9l-3,9.4C173.3,84,168,81.9,163.7,80.1 M196.6,90.8
			c-5.7,0-11.4-0.9-16.2-2.1l3-9.8c2.1,0.5,7.1,1.1,13.3,1.1s11.2-0.7,13.3-1.1l3,9.8C208,90.2,202.3,90.8,196.6,90.8 M213.5,85.4
			l-3-9.4c6.2-1.4,10.5-2.5,13.7-3.9V78l5,2.1C225.2,81.9,219.9,84,213.5,85.4 M108.6-16.8c0,0,3,5.5,4.8,6.6
			c5.3-5.3,9.1-13,17.8-17.4c-4.1-6.6-9.6-5.5-9.8-11.4c2.5,0.7,5-0.9,5.3-4.1c-2.7-1.6-3.7,1.4-4.3,0.7c-0.7-0.7,3.2-0.7,2.7-4.6
			c-3.7,0-3,2.5-3.9,2.1c-0.7-0.2,0.9-2.3-2.3-4.3c-1.8,3.4,0.7,4.3,0.2,5s-1.6-2.1-4.6-0.9c0.9,4.1,4.8,2.5,4.3,3.9
			c-0.5,0.9-3.2-1.8-4.1,1.6c1.6,2.7,4.3,2.1,5.9,0.9c0.2,5.5,3.9,5.9,7.8,9.6c-10.5-4.3-23.5,0.9-28.4,1.6c0.7,1.6,2.3,3.4,4.1,4.1
			c-3,2.7-3,4.3-5,6.4C98.8-16.8,102.9-12.5,108.6-16.8 M102.6-17.8c1.4-2.1,3.4-4.1,5.9-6.2c-1.8-0.2-3.2-0.7-4.8-2.1
			c3.7-0.9,11.4-3.7,18.1-2.5c2.1,0.2,3.4,1.1,2.5,1.6c-3.7,2.3-8,7.8-11.2,14.2c-2.7-3.4-1.6-8-0.9-9.4
			C106.5-18.7,105.2-17.1,102.6-17.8"/>
		<path class="st0" d="M192-21v3.2c1.1-1.4,3.2-1.1,3.2-1.1v4.6c0,0,0,2.3-0.9,3.2h4.6c-0.7-0.9-0.9-3.2-0.9-3.2v-4.6
			c0,0,2.1-0.2,3.2,1.1V-21H192z"/>
	</g>
	<path class="st1" d="M297.2-19.6c-0.5-0.7-0.9-1.1-1.4-1.8c-0.2-0.5-0.5-0.7-0.7-1.1c0.7-0.9,1.4-2.1,2.1-3.2l2.1-4.6l-5-0.7
		c-0.9-0.2-2.3-0.5-3.9-0.9c-3.2-0.9-7.1-1.8-11.4-2.3c1.4-0.7,2.7-1.8,3.7-3.4l0.9-1.6c0,0-0.2-2.1-1.1-2.7l0.7-2.1l0.7-3.4
		l-3.2-1.1c-0.5-0.2-0.9-0.2-1.6-0.5c-0.2-0.7-0.5-1.4-0.9-1.8l-1.8-3.4l-3.4,2.1c-0.9,0.5-1.6,1.1-2.3,1.8c-0.5,0-1.1-0.2-1.6-0.2
		c0,0-2.1-0.2-4.1,0.5l-2.7-3l-3.4-3.4c-3-3.2-7.3-4.3-11.4-2.7c-1.6-1.6-4.1-3-8-3c-1.4,0-2.5,0.2-3.2,0.2c0,0-5.5,0.9-8.5,3.9
		l-3.7-1.8c-2.5,3.9-6.6,5-6.6,5c-0.2-1.1-0.7-2.3-1.6-3.2l0.2-1.4c0,0,0.9-4.8,3.4-8.7l4.3-6.9l-6.2,0.7v-2.3l-0.9-5l-4.8,2.3
		l-1.4,0.7l-0.9-2.1l-2.3,1.1c-0.2-0.5-0.5-1.1-0.9-1.8l-2.7-4.8l-3.7,3.9c-0.5,0.5-0.7,0.7-0.9,1.1l-2.3-2.3l-2.3,2.3
		c-0.2-0.5-0.7-0.7-0.9-1.1l-3.7-3.9l-2.5,4.8c-0.5,0.7-0.7,1.4-0.9,1.8l-2.5-1.3l-0.9,2.1c-0.5-0.2-0.9-0.5-1.6-0.7l-5-2.3
		l-0.5,5.3v2.3l-6.2-0.7l4.3,6.9c2.5,3.9,3.4,8.7,3.4,8.7l0.2,1.4c-0.7,0.9-1.1,2.1-1.6,3.2c0,0-3.9-1.6-6.6-5l-3.9,1.8
		c-4.3-3-7.1-4.1-11.7-4.1c-3.9,0-6.4,1.4-8,3c-4.3-1.6-8.5-0.7-11.4,2.7c0,0-2.1,2.3-3.2,3.4c-1.4,1.4-3.2,2.5-3.2,2.5
		s-2.7-0.7-5.5,0c-0.7-0.7-1.4-1.1-2.3-1.8l-3.4-2.1l-1.8,3.4c-0.5,0.7-0.7,1.4-0.9,1.8c-0.5,0-0.9,0.2-1.6,0.5l-3,1.1l0.7,3.4
		c0.2,0.7,0.5,1.6,0.7,2.1c-0.2,0.5-0.5,0.7-0.5,1.1l-0.5,1.6l0.9,1.6c0.9,1.6,2.1,2.7,3.7,3.4c-4.3,0.5-8.2,1.6-11.4,2.3
		c-1.6,0.5-3,0.7-3.9,0.9l-5,0.7l1.1,2.5l0.9,2.1c0.5,1.1,1.1,2.3,2.1,3.2c-0.2,0.5-1.6,2.5-2.1,3l-3,2.7l2.5,2.7
		c0.2,0.2,3,3.2,7.5,3.2c1.1,0,2.5-0.2,3.7-0.7c1.1,1.8,2.5,3.7,3.9,4.6c-2.3,2.7-5,5.3-8.9,7.1l-3,1.7l1.4,3.7
		c0.9,2.3,2.7,4.6,5.9,5.5c-0.7,2.1-1.1,4.1-1.4,5.9c-0.7,4.3-1.1,6.2-4.8,7.5l-3.4,1.4l0.9,3.4c0.7,2.7,2.1,4.8,3.2,5.9l-2.3,2.5
		c0,0,5.5,4.1,10.7,4.6c0,0,4.6,0.2,6.6-2.3c0.9,3,2.1,5.7,3.2,8c2.3,5,3.7,8,2.1,10.7l-3.7,6.2l7.1-0.2c3.2-0.2,5.9-0.2,8.5-0.9
		v0.5l-0.7,5.3l6.2-1.4c0.7-0.2,1.4-0.5,1.8-0.7c3.9,4.6,10.5,8,19.2,8h0.5l-10.3,4.1l7.3,3.9c4.8,2.5,10.3,4.6,16.5,6.4v3l3.7,1.1
		c2.1,0.7,9.8,2.7,19.4,2.7c9.6,0,17.1-2.1,19.4-2.7l3.7-1.1l-0.9-3c6.2-1.8,11.7-3.9,16.5-6.4l7.3-3.9l-10.3-4.1h0.5
		c8.9,0,15.5-3.4,19.2-8c0.5,0.2,1.1,0.5,1.8,0.7l6.2,1.4l-0.7-5.3v-0.5c2.5,0.7,5.5,0.9,8.5,0.9l7.1,0.2l-3-6.2
		c-1.6-2.7-0.2-5.7,2.1-10.7c1.1-2.5,2.5-5.3,3.2-8c1.4,1.1,2.7,1.6,4.3,2.1l2.3,0.5c3.2,0,4.8-0.7,6.9-2.1l3.9-2.5l-2.3-2.5
		c1.4-1.1,2.5-3.2,3.2-5.9l0.9-3.4l-3.4-1.1c-3.9-1.4-4.1-3.2-4.8-7.5c-0.2-1.8-0.7-3.9-1.4-5.9c3.4-0.9,5-3.4,5.9-5.5l1.4-3.7
		l-3.2-1.6c-3.9-1.8-6.6-4.3-8.9-7.1c1.4-0.9,2.7-2.7,3.9-4.6c1.1,0.5,2.3,0.7,3.7,0.7c4.6,0,7.3-3,7.5-3.2l2.5-2.7L297.2-19.6
		L297.2-19.6z"/>
	<path class="st2" d="M165.1,28.2V-1.3c0-2.7-0.7-5.5-1.8-8h22.9c2.1,3,5.9,4.8,10.3,4.8c4.3,0,8.2-1.8,10.3-4.8h22.9
		c-0.9,2.5-1.8,5.3-1.8,8v29.5H165.1z M196.6,68.4c-3.2-3.2-5.5-3.4-14.2-3.4c-10.3,0-17.4-5.9-17.4-15.8V29.8h62.9v19.4
		c0,9.6-7.1,15.8-17.4,15.8C202.1,65,199.8,65.2,196.6,68.4"/>
	<path class="st1" d="M168.7,72.1V78l-5,2.1c4.3,2.1,9.6,3.9,16,5.3l3-9.4C176.5,74.6,172.2,73.5,168.7,72.1 M196.6,80.1
		c-5.9,0-11.2-0.7-13.3-1.1l-3,10.1c4.8,1.1,10.5,2.1,16.2,2.1c5.7,0,11.4-0.9,16.2-2.1l-3-9.8C207.8,79.4,202.6,80.1,196.6,80.1"/>
	<path class="st1" d="M224.3,72.1c-3.2,1.4-7.5,2.5-13.7,3.9l3,9.4c6.4-1.4,11.7-3.4,16-5.3l-5-2.1L224.3,72.1L224.3,72.1z
		 M158.2-23c8-4.3,27.7-13.9,14.4-24c-1.8-1.4-3.9-2.7-5.5-4.1c-2.1,1.6,0.7,5.5,1.6,7.1c0,0-4.3,0.5-5.5,0.5
		c-6.9,0-13.9-4.1-10.3-11.9c-2.7,0.5-3,3.2-3.9,5.5c-1.8-1.1-4.8-3.7-7.1-3.4c1.8,6.2,9.8,11.4,16,12.8c-6.2,3.4-17.8,5.9-24-1.4
		c-4.3,8.2,1.6,11.7,7.5,16c-22.2,10.1-19,21.5-33.6,30.6c1.8,0.9,10.3-0.9,11.2-0.9c-3.2,4.1-4.6,5.9-5.5,7.8
		c-0.9,1.8-1.4,3.9-2.1,8.5c-0.7,3.7-2.1,7.3-6.4,9.6c1.1,3,5,0.5,6.6,0.2c-0.2,0.2-0.7,4.1-2.3,5.9c7.5-0.5,4.1-16.2,11.4-12.6
		c2.1,1.1,2.7,3.7,1.8,5.5c-5,10.3,6.2,19.2,5.7,28.1c2.7,0,5.7,0,7.3-3.9c0.9,1.8,2.3,4.6,3.2,7.1l2.3-3.9
		c1.4,6.4,7.3,12.1,15.3,12.8c-3.9-5.9,0.7-14.2-8.5-22.9c1.1-0.9,3.9-2.7,4.8-3.9c-11.4,1.4-23.1-7.5-17.8-11.9
		c3.4-2.7,5,3,10.5,2.1l-2.1-2.1l2.5-2.5c-2.3-0.2-4.8-1.8-4.8-1.8l1.4-2.3c-13.3,0-13.7-10.3-8.2-10.5c2.5-0.2,5.7,4.6,13.9,3.4
		c-1.1-1.4-1.4-3.2-2.1-4.6c2.1,0,4.3,0,6.2-0.9c-3.9-0.5-5-1.8-8.2-4.3l3.9-1.4c-5.5-2.7-5.3-7.8-5.5-12.8c3,1.6,6.4,4.3,10.1,3
		c0.9-0.2,1.4-0.7,1.4-1.6C148.8-8.2,145.6-16.2,158.2-23 M148.6-22.1c-7.1,7.5-3.9,11.9-2.5,13.3c-2.5-0.5-6.4-3.9-5.7-7.1
		c-0.9,0.9-1.6,2.1-2.5,3.2c-1.8,2.3-3.2,4.6-4.6,6.9c-2.1,6.4,1.8,12.8,8.5,15.8c-7.3-1.1-10.7-7.5-10.7-11.9
		c-3.4,6.6-5.3,12.8-5,17.8c0,1.8,0.2,3.7,0.5,5.3c1.6,3.2,4.3,4.3,9.1,5c-4.3,0.2-6.6,0-8.7-1.8c3,12.8,16.9,24,22.6,33.6
		c-5.7-7.5-17.6-18.5-21.7-26.5c-0.2,3,0.5,10.3,4.1,14.9c-5.3-5.3-5.7-13-5.3-17.8c-1.4-3.4-2.3-7.1-2.3-11.2
		c0-3.9,0.2-7.3,0.7-10.3c-3.4,4.8-8.2,6.6-10.5,13.9c0.5-9.4,7.5-9.6,12.6-20.8c2.1-5,5-9.1,8.2-14.2c-4.1,1.4-7.3,2.3-12.1,7.5
		c3.4-8,23.1-17.1,32-25.8c-2.7,0.5-13.7,0.9-18.3-2.3c8.2,2.3,26.8-0.2,33.6-5c-4.8,6.9-15.3,7.3-28.1,21
		C144.5-19.8,146.5-21.2,148.6-22.1 M282.1,20c-0.9-4.6-1.4-6.6-2.1-8.5c-0.9-2.1-2.5-3.7-5.5-7.8c0.7,0,9.1,1.8,11.2,0.9
		c-14.6-8.9-11.4-20.3-33.6-30.6c5.9-4.3,11.9-7.8,7.5-16c-6.2,7.3-17.6,4.8-24,1.4c6.2-1.1,14.2-6.6,16-12.8
		c-2.3-0.5-5.3,2.3-7.1,3.4c-0.9-2.3-1.1-4.8-3.9-5.5c3.7,7.8-3.4,11.9-10.3,11.9c-1.1,0-5.5-0.5-5.5-0.5c0.7-1.4,3.7-5.5,1.4-7.1
		c-1.6,1.6-3.7,2.7-5.5,4.1c-13.3,10.3,6.4,19.9,14.4,24c12.6,6.9,9.1,14.9,3.9,16.9c0,0.9,0.7,1.4,1.4,1.6c3.7,1.1,7.1-1.4,10.1-3
		c-0.2,5,0.2,9.8-5.5,12.8l3.9,1.4c-3.4,2.5-4.3,3.9-8.2,4.3c1.8,0.9,4.1,0.9,6.2,1.1c-0.5,1.4-0.9,3.2-2.1,4.6
		c8.2,0.9,11.4-3.7,13.9-3.4c5.5,0.5,5,10.5-8.2,10.5l1.4,2.3c0,0-2.5,1.4-4.8,1.8c0.9,0.7,1.8,1.6,2.5,2.5l-2.1,1.8
		c5.5,0.9,6.9-4.8,10.5-2.1c5.3,4.3-6.4,13.3-17.8,11.9c0.9,1.1,3.7,3,4.8,3.9c-9.1,8.7-4.8,16.9-8.5,22.9c8-0.5,13.9-6.4,15.3-12.8
		l2.3,3.9c0.9-2.5,2.3-5,3.2-7.1c1.8,3.7,4.6,3.9,7.5,3.9c-0.7-8.9,10.5-17.8,5.7-28.1c-0.9-2.1-0.5-4.6,1.8-5.5
		c7.5-3.9,4.1,12.1,11.7,12.6c-1.4-1.8-2.1-5.5-2.3-5.9c1.6,0.5,5.5,2.7,7.1-0.2C284.2,27,282.8,23.4,282.1,20 M268.2,6.9
		c0.7,3,0.9,6.4,0.7,10.3c-0.2,4.1-0.9,8-2.3,11.2c0.2,4.6,0,12.6-5.3,17.8c3.7-4.6,4.3-11.9,4.1-14.9c-4.1,8-16,19-21.7,26.5
		c5.7-9.6,19.7-20.8,22.9-33.6c-1.8,2.1-4.3,2.3-8.7,1.8c4.8-0.7,7.5-1.8,9.1-5c0.2-1.6,0.5-3.4,0.5-5.3c0.2-5-1.6-11.2-5-17.8
		c0,4.1-3.2,10.7-10.7,11.9c6.6-3,10.5-9.4,8.5-15.8c-1.4-2.3-3-4.6-4.6-6.9c-0.9-1.1-1.8-2.3-2.5-3.2c0.9,3.2-3,6.6-5.7,7.1
		c1.4-1.4,4.3-5.9-2.5-13.3c2.1,0.9,4.1,2.3,5.7,3.4c-12.8-13.7-23.1-14.2-28.1-21c7.1,4.8,25.4,7.3,33.6,5
		c-4.6,3-15.5,2.7-18.3,2.3c8.9,8.7,28.6,17.8,32,25.8c-4.8-5.3-7.8-6.2-11.9-7.5c3.2,4.8,6.2,9.1,8.2,14.2
		c5.3,11.4,12.1,11.4,12.6,20.8C276.4,13.6,271.6,11.7,268.2,6.9"/>
	<path class="st1" d="M206.9-9.3c-2.1,3-5.9,4.8-10.3,4.8c-0.9,0-2.1,0-3-0.2c0.2,1.1,0.9,2.5,2.1,3.4c-0.5,3.4,0.9,6.6,4.6,7.5
		c0.5,1.8,1.4,3.2,3.4,3.7l-2.5,3c-0.9,1.1-2.3,1.6-3.4,1.4l-11.4-1.4c0.5-1.4-0.9-2.7-4.6-2.1l4.6-12.6l-2.7-5.9l-5.3,4.6l-0.2,13
		l-2.3-1.1c-3-1.4-3.7,4.1-0.9,4.1h1c0,0.5,0,1.1,0.5,1.4c-0.5,0.2-0.7,1.1,0,1.6c-0.7,0.2-0.7,1.4-0.2,1.8
		c-0.5,0.9-0.7,3.2,1.4,3.7c1.6,0.5,2.7-1.4,3-2.3l17.8,5.5c2.5,0.7,4.3,0.2,6.4-1.6l4.6-4.1c-0.7,2.7,0.5,5,2.5,5.9
		c0,0-0.2,2.5-0.2,3.4h16V-1.3c0-2.7,0.7-5.5,1.8-8L206.9-9.3L206.9-9.3z M179.9,40.3l0.5,0.5c0.5,0.7,0.7,0.5,1.4,0.2l0.9-0.5
		c0.5-0.5,3.9,0.9,4.1-1.8c0.5,2.1-2.1,6.4-0.7,8.9l2.1,3.2h-6.6c-0.7,0-1.1,0.5-1.4,0.9l-1.6,3.7c-0.5,0.9-0.5,1.8,0.2,2.5l1.1,1.4
		c0,0,0.9-0.9,1.1-1.8l-0.7-0.9c-0.5-0.5-0.5-0.7-0.2-1.4l1.1-2.3c0.5-0.9,0.9-1.1,1.8-0.9l5.3,1.1c0.5,0,0.9,0.2,1.4-0.5
		c0.7-1.1,1.8-1.1,3-1.1c3,0.5,9.6,1.1,11.9-1.6c2.7,3.7,8.2,3.7,8,5.7l-1.1,6.4h1.8l1.1-6.6c0.2-0.7,0.7-1.8-0.2-2.3
		c-0.2-0.2-0.5-0.5-1.1-1.6c-0.9-1.8-0.9-4.3-1.8-6.6c0.9-1.1,1.8-1.4,2.7-1.1c1.8,0.5,2.5,3.9,5.3,6.6c-0.2-1.1-0.5-2.5-1.1-3.7
		c0,0,1.8,1.4,2.3,3.2c0.2,1.1,0.7,1.8,1.6,2.3c0.7,0.2,1.4,0,2.3-0.9c0,0-1.8-2.5-3.2-4.3c-1.8-2.3-4.3-4.6-7.5-4.3
		c-1.1,0-2.1,0.5-3,1.1c-4.1-2.1-7.1,0.2-8.2,0.2l-7.1-0.5c-1.4,0-2.5-1.6-2.5-1.6c-0.2-5.9-5-8.2-6.6-8.2c0,0,0.2-1.1-0.2-1.4
		l-1.4,1.8l-4.1-1.6l3.2,2.5l-3.4,4.1C179.7,39.4,179.9,40.1,179.9,40.3"/>
	<path class="st1" d="M175.4,48.5c-0.9,0.7-0.9,1.8-0.5,3l0.7,1.1l1.6-1.1l-0.5-0.7c-0.2-0.5-0.2-1.1,0.2-1.4l2.3-1.6
		c0.7-0.5,0.9-0.5,1.4-0.5l4.6,0.9c0,0-0.7-0.9-0.9-2.1l-4.3-0.7c-0.7,0-0.9,0.2-1.6,0.7L175.4,48.5L175.4,48.5z M205.1,62.5h1.8
		l2.7-6.9c0-0.2,0.2-0.5,0.2-0.5c-1.4-0.5-2.1-0.9-3-1.4c0.7,0.9,1.4,1.4,0.9,2.3L205.1,62.5z M206.7-31.7l3.2-18.7l-12.3,4.1v19.4
		L206.7-31.7z M199.6-44.3l8.2-3c0,0-1.6,1.4-3.4,2.5c-1.6,1.1-4.8,2.5-4.8,2.5S199.6-44.3,199.6-44.3z M199.6-39.7l7.5-2.7
		c0,0-0.9,0.9-2.7,2.3c-1.6,1.1-4.8,2.5-4.8,2.5V-39.7z M199.6-34.9l6.6-2.5c0,0,0,0.9-1.8,2.1c-1.6,1.1-4.8,2.5-4.8,2.5
		S199.6-34.9,199.6-34.9z M184.7-15l0.2,0.5h2.5v0.5c0,0.5,0.2,0.9,0.2,1.4c0.5,1.1,1.1,2.5,2.5,3.4c1.4,1.1,3.7,2.1,6.4,2.1
		c6.2,0,8.9-3.9,9.1-6.9v-0.5h2.5l0.2-0.5c2.3-3.7,5.3-8,8.7-8.5l-9.4-5.5l-11.4,6.2L185-29l-9.4,5.5C179.2-23,182.2-18.9,184.7-15"
		/>
	<path class="st1" d="M195.7-26.9v-19.4l-12.3-4.1l3.2,18.7L195.7-26.9z M193.6-32.9c0,0-3-1.1-4.8-2.5c-1.8-1.4-1.8-2.1-1.8-2.1
		l6.6,2.5L193.6-32.9L193.6-32.9z M193.6-44.3v2.1c0,0-3-1.1-4.8-2.5c-1.8-1.4-3.4-2.5-3.4-2.5L193.6-44.3z M193.6-39.7v2.1
		c0,0-3-1.1-4.8-2.5c-1.8-1.4-2.7-2.3-2.7-2.3L193.6-39.7z M196.6-58.7c-7.1,0-12.3,2.3-13.5,5l13.5,5.3l13.5-5.3
		C209-56.4,203.7-58.7,196.6-58.7 M196.6-66.5c5.3,0,10.3,1.6,13.9,3.7c0.5-1.8,1.1-3.2,2.1-4.8l-3.2,0.5l-2.7-5.5l-4.8,2.5
		l-5.3-5.3l-5.3,5.3l-4.8-2.5l-2.5,5.5l-3.2-0.5c0.9,1.6,1.4,3,2.1,4.8C186.1-64.9,191.4-66.5,196.6-66.5 M284.6-23.9
		c1.8-0.2,3.2-0.7,4.8-2.1c-3.7-0.9-11.4-3.7-18.1-2.5c-2.3,0.2-3.4,1.1-2.5,1.6c3.4,2.3,8,7.8,11.2,14.2c2.7-3.4,1.6-8,1.1-9.4
		c5.5,3.4,7.1,5,9.6,4.3C289.2-19.8,287.4-21.7,284.6-23.9 M113.2-12.7c3.2-6.4,7.5-11.9,11.2-14.2c0.7-0.5-0.5-1.4-2.5-1.6
		c-6.6-1.1-14.4,1.6-18.1,2.5c1.8,1.4,3.2,1.8,4.8,2.1c-2.7,2.3-4.6,4.1-5.9,6.2c2.5,0.7,4.1-0.9,9.6-4.3
		C111.6-20.7,110.4-16.2,113.2-12.7"/>
	<path d="M151.8,46.3c2.5-2.1,4.8-3,4.6-8c-3.9,2.1-14.9,1.8-19.4-4.3c-1.4-1.8,0-2.7,1.4-1.4c3.2,3.4,8.9,1.8,11,0.9
		c-0.2-1.1-1.4-2.7-2.1-3.4c0.7-0.7,3-1.8,3.4-3.9c-1.1-0.7-5.7-1.1-5.7-1.1c0.7-0.7,1.6-1.8,1.1-4.3c-4.8,1.4-10.5-0.5-11.9-2.3
		c-1.4-1.8,0-3.4,1.1-2.3c2.3,2.5,13.9,5.3,18.3,0.9c-1.6-0.5-3.4-1.8-3.7-2.7c3.9-0.5,7.1-2.7,7.5-5.7c-2.3,0-6.4-0.2-7.8-1.1
		c1.8-0.7,3.2-1.4,3.7-3.7c-7.3-0.5-8-5.9-8-6.9c4.8,2.7,13.3,1.6,11-5.3c-3.9-0.2-8-6.6,3-12.6c9.8-5.3,21.3-11.2,20.1-20.6
		c-0.7-6.2-10.7-10.3-11.9-13.3c-4.1,2.1-5,4.3-3.2,8.2c0,0-9.4,0.9-10.1-4.8c-0.2-2.5,1.4-5,3.2-6.9c-1.1,0-8-1.8-10.3,3.9
		c-3.9-2.7-7.3-2.5-10.1,0.2c4.3,2.5,6.9,11.2,13.9,13.7c-5,2.7-13,1.6-17.8-6.6c-4.3,6.6-7.1,13.3,2.5,20.3
		c-17.1,8-16.9,23.1-32,30.2c1.6,4.1,4.8,4.1,8.9,3.4c-6.6,8.7-0.9,17.4-11.4,21c0.9,3.4,3,6.2,6.6,5.3c-1.1,1.6-1.8,1.6-3.4,3.4
		c5.7,3.7,12.3,0.9,13.9-10.5c0.2-2.1,3-0.7,2.1,1.1c-6.4,13.5,9.8,23.5,4.1,33.4c5-0.2,8.9-0.7,11-2.3c1.1,2.1,1.6,4.1,1.4,6.2
		c2.7-0.5,3.9-2.3,4.1-4.1c1.8,5.3,8.5,11.2,19,11.2C154.5,63.4,159.8,55.4,151.8,46.3 M141.5,56.1l-2.3,3.9c-0.9-2.5-2.3-5-3.2-7.1
		c-1.8,3.7-4.6,3.9-7.3,3.9c0.7-8.9-10.5-17.8-5.7-28.1c0.9-2.1,0.2-4.6-1.8-5.5c-7.5-3.9-4.1,12.1-11.4,12.6
		c1.4-1.8,2.1-5.5,2.3-5.9c-1.6,0.5-5.5,2.7-7.1-0.2c4.3-2.3,5.7-5.9,6.4-9.6c0.9-4.6,1.4-6.6,2.1-8.5c0.9-2.1,2.5-3.7,5.5-7.8
		c-0.7,0-9.1,1.8-11.2,0.9c14.6-8.9,11.4-20.3,33.6-30.6c-5.9-4.3-11.9-7.8-7.5-16c6.2,7.3,17.6,4.8,24,1.4
		c-6.2-1.1-14.2-6.6-16-12.8c2.3-0.5,5.3,2.3,7.1,3.4c0.9-2.3,1.1-4.8,3.9-5.5c-3.7,7.8,3.4,11.9,10.3,11.9c1.1,0,5.5-0.5,5.5-0.5
		c-0.7-1.4-3.7-5.5-1.6-7.1c1.6,1.6,3.7,2.7,5.5,4.1c13.3,10.3-6.4,19.9-14.4,24c-12.6,6.9-9.1,14.9-3.9,16.9c0,0.9-0.7,1.4-1.4,1.6
		c-3.7,1.1-7.1-1.4-10.1-3c0.2,5-0.2,9.8,5.5,12.8l-3.9,1.4c3.4,2.5,4.3,3.9,8.2,4.3c-1.8,0.9-4.1,0.9-6.2,1.1
		c0.5,1.4,0.9,3.2,2.1,4.6c-8.2,0.9-11.4-3.7-13.9-3.4c-5.5,0.5-5,10.5,8.2,10.5l-1.4,2.3c0,0,2.5,1.4,4.8,1.8
		c-0.9,0.7-1.8,1.6-2.5,2.5l2.1,1.8c-5.5,0.9-6.9-4.8-10.5-2.1c-5.3,4.3,6.4,13.3,17.8,11.9c-0.9,1.1-3.7,3-4.8,3.9
		c9.1,8.7,4.6,16.9,8.5,22.9C148.8,68.2,142.9,62.5,141.5,56.1 M126.9,24.3c1.8,2.1,4.3,2.3,8.7,1.8c-4.8-0.7-7.5-1.8-9.1-5
		c-0.2-1.6-0.5-3.4-0.5-5.3c-0.2-5,1.6-11.2,5-17.8c0,4.1,3.2,10.7,10.7,11.9c-6.6-3-10.5-9.4-8.5-15.8c1.4-2.3,3-4.6,4.6-6.9
		c0.9-1.1,1.8-2.3,2.5-3.2c-0.9,3.2,3,6.6,5.7,7.1c-1.4-1.4-4.3-5.9,2.5-13.3c-2.1,0.9-4.1,2.3-5.7,3.4c12.8-13.7,23.3-14.2,28.1-21
		c-6.9,4.8-25.4,7.3-33.6,5c4.6,3,15.5,2.7,18.3,2.3c-8.9,8.7-28.6,17.8-32,25.8c4.8-5.3,7.8-6.2,12.1-7.5
		c-3.2,4.8-6.2,9.1-8.2,14.2c-5.3,11.4-12.1,11.4-12.6,20.8c2.3-7.3,7.3-9.1,10.5-13.9c-0.7,3-0.9,6.4-0.7,10.3
		c0.2,4.1,0.9,8,2.3,11.2c-0.2,4.6,0,12.6,5.3,17.8c-3.7-4.6-4.3-11.9-4.1-14.9c4.1,8,16,19,21.7,26.5
		C143.8,48.3,129.9,37.1,126.9,24.3 M257.9-14.1c4.1,1.4,7.3,2.3,11.9,7.5c-3.4-8-23.1-17.1-32-25.8c2.7,0.5,13.7,0.9,18.3-2.3
		c-8.2,2.3-26.8-0.2-33.6-5c4.8,6.9,15.3,7.3,28.1,21c-1.6-1.4-3.9-2.5-5.7-3.4c7.1,7.5,3.9,11.9,2.5,13.3c2.5-0.5,6.4-3.9,5.7-7.1
		c0.9,0.9,1.6,2.1,2.5,3.2c1.8,2.3,3.2,4.6,4.6,6.9c2.1,6.4-1.8,12.8-8.5,15.8c7.3-1.1,10.7-7.5,10.7-11.9c3.4,6.6,5.3,12.8,5,17.8
		c0,1.8-0.2,3.7-0.5,5.3c-1.6,3.2-4.3,4.3-9.1,5c4.3,0.2,6.6,0,8.7-1.8c-3,12.8-16.9,24-22.9,33.6c5.7-7.5,17.6-18.5,21.7-26.5
		c0.2,3-0.5,10.3-4.1,14.9c5.3-5.3,5.7-13,5.3-17.8c1.4-3.4,2.3-7.1,2.3-11.2c0.2-3.9-0.2-7.3-0.7-10.3c3.4,4.8,8.2,6.6,10.5,13.9
		c-0.5-9.4-7.5-9.6-12.6-20.8C264.1-5,261.1-9.3,257.9-14.1 M280.5,6.9c4.1,0.7,7.3,0.7,8.9-3.4c-15.1-7.1-15.1-22.4-32.2-30.2
		c9.6-7.1,6.9-13.7,2.5-20.3c-4.8,8.2-12.8,9.4-17.8,6.6c7.1-2.5,9.6-11.2,13.9-13.7c-2.7-2.7-5.9-3-10.1-0.2
		c-2.1-5.7-9.1-3.9-10.3-3.9c1.8,1.8,3.7,4.3,3.2,6.9c-0.7,5.7-10.1,4.8-10.1,4.8c1.8-3.9,1.1-6.2-3.2-8.2
		c-1.4,3-11.2,7.3-11.9,13.3c-0.9,9.6,10.3,15.3,20.1,20.6c11,5.9,6.9,12.3,3,12.6c-2.3,6.9,6.2,8,11,5.3c0,0.9-0.7,6.4-8,6.9
		c0.7,2.1,1.8,2.7,3.7,3.7c-1.4,1.1-5.7,1.1-7.8,1.1c0.2,3,3.4,5.3,7.5,5.7c-0.2,0.9-2.1,2.3-3.7,2.7c4.3,4.3,16,1.4,18.3-0.9
		c1.1-1.1,2.5,0.5,1.1,2.3s-7.1,3.7-11.9,2.3c-0.5,2.7,0.5,3.7,1.1,4.3c0,0-4.6,0.5-5.9,1.1c0.5,2.1,2.7,3.2,3.4,3.9
		c-0.7,0.7-1.8,2.3-2.1,3.4c2.1,0.9,8,2.5,11-0.9c1.4-1.4,2.7-0.5,1.4,1.4c-4.6,6.2-15.5,6.4-19.4,4.3c0,5,2.1,5.9,4.6,8
		c-8,9.1-2.7,17.1-8.2,25.1c10.5,0,17.1-5.7,19-11.2c0.2,1.8,1.1,3.7,4.1,4.1c-0.2-2.1,0.5-4.1,1.4-6.2c2.1,1.6,5.9,2.1,11,2.3
		c-5.7-9.8,10.5-19.9,4.1-33.2c-0.9-2.1,1.8-3.2,2.1-1.1c1.6,11.4,8.2,13.9,13.9,10.5c-1.6-1.8-2.5-1.8-3.4-3.4
		c3.9,0.9,5.7-1.8,6.6-5.3C281.4,24.3,287.2,15.6,280.5,6.9 M281.4,29.8c0.2,0.2,0.7,4.1,2.3,5.9c-7.5-0.5-4.1-16.2-11.7-12.6
		c-2.1,1.1-2.7,3.7-1.8,5.5c4.8,10.3-6.2,19.2-5.7,28.1c-2.7,0-5.7,0-7.5-3.9c-0.9,1.8-2.3,4.6-3.2,7.1l-2.3-3.9
		c-1.4,6.4-7.3,12.1-15.3,12.8c3.9-5.9-0.7-14.2,8.5-22.9c-1.1-0.9-3.9-2.7-4.8-3.9c11.4,1.4,23.1-7.5,17.8-11.9
		c-3.4-2.7-5,3-10.5,2.1l2.1-1.8l-2.5-2.5c2.3-0.2,4.8-1.8,4.8-1.8l-1.4-2.3c13.3,0,13.7-10.3,8.2-10.5c-2.5-0.2-5.7,4.6-13.9,3.4
		c1.1-1.4,1.4-3.2,2.1-4.6c-2.1-0.2-4.3-0.2-6.2-1.1c3.9-0.5,5-1.8,8.2-4.3l-3.9-1.4c5.5-2.7,5.3-7.8,5.5-12.8
		c-3,1.6-6.4,4.3-10.1,3c-0.9-0.2-1.4-0.7-1.4-1.6c5.3-2.1,8.7-10.1-3.9-16.9c-8-4.3-27.7-13.9-14.4-24c1.8-1.4,3.9-2.7,5.5-4.1
		c2.1,1.6-0.7,5.5-1.4,7.1c0,0,4.3,0.5,5.5,0.5c6.9,0,13.9-4.1,10.3-11.9c2.7,0.5,3,3.2,3.9,5.5c1.8-1.1,4.8-3.7,7.1-3.4
		c-1.8,6.2-9.8,11.4-16,12.8c6.2,3.4,17.8,5.9,24-1.4c4.3,8.2-1.6,11.7-7.5,16c22.2,10.1,19,21.5,33.6,30.6
		c-1.8,0.9-10.3-0.9-11.2-0.9c3.2,4.1,4.6,5.9,5.5,7.8c0.9,1.8,1.4,3.9,2.1,8.5c0.7,3.7,2.1,7.3,6.4,9.6
		C286.9,32.5,283,30,281.4,29.8 M175.4,54.7l3.2-2.7l-0.5-0.9c-0.5-0.7-0.2-0.7,0.2-0.9l1.6-1.1c0.5-0.2,0.7-0.2,1.4-0.2l5,1.1H181
		c-1.1,0-1.6,0.5-2.1,1.4l-0.5,0.7l-1.4,2.7c-0.5,0.9-0.7,2.3,0.5,3.7l0.9,1.1l-2.1,3.9h1.6l1.4-2.7c0,0,2.1-1.8,2.5-3.9
		c-0.7-0.5-0.9-0.9-0.7-1.4l0.7-1.4c0.2-0.5,0.2-0.7,0.9-0.5l5.3,1.1c0.7,0.2,1.6,0.5,2.3-0.7c0.7-1.1,0.9-0.9,2.5-0.9l2.7,0.2
		c3.7,0.5,7.3-0.7,8.9-1.6c0.5,1.1,1.6,2.1,2.1,3c0.2,0.2-0.2,0.7-0.2,1.4l-3.2,7.5h4.6l2.7-6.6c0.2-0.7,0.7-1.1,0.9-1.4l-1.6,8h4.6
		l1.1-8c0.2-1.8,0-2.3-0.7-3c-1.8-1.6-1.8-5-2.5-7.1c0.2-0.2,0.7-0.2,1.1-0.2c0.9,0,1.8,2.5,3,4.3c2.3,3.2,5.5,6.9,9.1,1.8
		c-0.5-0.7-0.7-1.1-1.1-1.6l-0.9-1.1c-0.7-0.7-3.4-3.9-4.6-5c-2.7-2.7-6.6-2.3-8.5-0.9c-3.7-1.8-7.5,0-8.5,0l-6.4-0.5
		c-0.2,0-0.7-0.2-1.1-0.7l1.1-0.5c-1.1-4.6-3.9-8.5-8.7-9.1c0,0-0.2-1.4-0.9-1.8l-1.4,1.6c-0.5,0-0.9,0.2-1.1,0.2l-6.2-2.3l4.6,4.8
		c0,0-2.5,3.4-3.2,4.1c-0.5,0.7-0.5,1.1,0,1.8l0.9,1.1c0.5,0.7,0.9,0.7,1.8,0.2l0.9-0.5c0.5-0.5,1.8,0.5,2.5-0.2
		c-0.5,1.4-0.7,2.5-0.7,3.7l-4.1-0.5c-0.9-0.2-1.4,0-1.8,0.5l-3.7,2.7c-1.1,0.9-1.6,2.5-0.9,3.9L175.4,54.7L175.4,54.7z M209.6,55.4
		l-2.7,6.9h-1.8l2.7-6.6c0.2-0.9-0.2-1.4-0.9-2.3c1.1,0.7,1.8,0.9,3,1.4C209.9,55.2,209.9,55.2,209.6,55.4 M182.4,40.3l-0.9,0.5
		c-0.5,0.2-0.9,0.5-1.4-0.2l-0.5-0.5c-0.2-0.2-0.2-0.7,0.2-1.1l3.4-4.1l-3-2.3l4.1,1.6l1.6-1.8c0.5,0.5,0.2,1.4,0.2,1.4
		c1.6,0,6.4,2.3,6.6,8.2c0,0,1.1,1.6,2.5,1.6l7.1,0.5c1.1,0,4.1-2.3,7.8-0.2c0.9-0.5,2.1-0.9,3-1.1c3.2-0.2,5.7,2.1,7.5,4.3
		c1.4,1.6,3.2,4.3,3.2,4.3c-0.7,0.9-1.6,1.1-2.3,0.9c-0.9-0.5-1.4-1.4-1.6-2.3c-0.5-1.8-2.3-3.2-2.3-3.2c0.7,1.1,0.7,2.5,1.1,3.7
		c-2.7-2.7-3.2-6.2-5.3-6.6c-0.9-0.2-1.8,0.2-2.7,1.1c0.9,2.3,0.9,4.8,1.8,6.6c0.7,1.4,0.9,1.4,1.1,1.6c0.9,0.7,0.5,1.6,0.2,2.3
		l-1.1,6.6h-1.8l1.1-6.4c0.5-2.1-5-2.1-8-5.7c-2.3,2.7-9.1,2.1-11.9,1.6c-1.1-0.2-2.3,0-3,1.1c-0.5,0.7-0.9,0.5-1.4,0.5l-5.3-1.1
		c-0.9-0.2-1.4,0-1.8,0.9l-1.1,2.3c-0.2,0.5-0.2,0.9,0.2,1.4l0.5,0.5c-0.2,1.1-1.1,1.8-1.1,1.8l-0.9-1.1c-0.5-0.7-0.7-1.6-0.2-2.5
		l1.6-3.7c0.2-0.5,0.5-0.9,1.4-0.9h6.6l-2.1-3.2c-1.6-2.5,0.9-6.9,0.7-8.9C186.3,41.2,182.9,40.1,182.4,40.3 M175.4,48.5l3.2-2.3
		c0.5-0.5,0.9-0.7,1.6-0.7l4.3,0.7c0.2,1.1,0.9,2.1,0.9,2.1l-4.6-0.9c-0.7,0-0.9,0-1.4,0.5l-2.3,1.6c-0.5,0.2-0.5,0.9-0.2,1.4
		l0.5,0.7l-1.6,1.1l-0.7-1.1C174.4,50.4,174.4,49.5,175.4,48.5 M188.8-35.4c1.6,1.1,4.8,2.5,4.8,2.5V-35l-6.6-2.5
		C187-37.4,187-36.7,188.8-35.4 M193.6-37.9V-40l-7.5-2.7c0,0,0.9,0.9,2.7,2.3C190.7-39,193.6-37.9,193.6-37.9 M193.6-42.2v-2.1
		l-8.2-3c0,0,1.6,1.4,3.4,2.5C190.7-43.6,193.6-42.2,193.6-42.2 M216.7-15h8.5c-0.5-1.1-1.6-2.5-4.1-2.5
		C218.6-17.5,217.2-16.2,216.7-15 M207.8-47.3l-8.2,3v2.1c0,0,3-1.1,4.8-2.5C206.2-46.1,207.8-47.3,207.8-47.3 M206.2-37.4l-6.6,2.5
		v2.1c0,0,3-1.1,4.8-2.5C206.2-36.7,206.2-37.4,206.2-37.4 M207.1-42.5l-7.5,2.7v2.1c0,0,3-1.1,4.8-2.5
		C206.2-41.5,207.1-42.5,207.1-42.5 M172.2-17.5c-2.5,0-3.7,1.1-4.1,2.5h8.5C176-16.2,174.7-17.5,172.2-17.5"/>
	<path d="M213.3-52.7c0-4.8-8-8.9-16.7-8.9s-16.7,4.1-16.7,8.9l0.2,1.1l3.4,20.1l-16.4,9.6c-1.8,1.1-3.9,3.9-4.3,6.9h3
		c0.5-3,2.7-5.9,7.1-5.9c3.9,0.2,6.2,2.5,8.2,5.9l0.7,0.9l0.9,1.4h-24.5c1.8,3.7,3.4,7.3,3.4,11.4v50.5c0,13,10.1,19.2,20.8,19.2
		c8.5,0,9.4-0.5,14.2,4.3c4.6-4.6,5.7-4.3,14.2-4.3c10.7,0,20.8-6.2,20.8-19.2V-1.3c0-4.1,1.6-8,3.4-11.4h-24.5l0.9-1.4l0.7-0.9
		c2.3-3.4,4.6-5.7,8.2-5.9c4.1-0.2,6.4,3,7.1,5.9h3c-0.2-3-2.5-5.7-4.3-6.9l-16.5-9.6l3.4-20.1L213.3-52.7L213.3-52.7z M183.4-50.5
		l12.3,4.1V-27l-9.1-4.8L183.4-50.5z M186.3-9.3c1.6,2.3,4.3,3.9,7.3,4.6c0.2,1.1,0.9,2.5,2.1,3.4c-0.5,3.4,0.9,6.6,4.6,7.5
		c0.5,1.8,1.4,3.2,3.2,3.7l-2.5,3c-0.9,1.1-2.3,1.6-3.4,1.4l-11.4-1.4c0.5-1.4-0.9-2.7-4.6-2.1l4.6-12.6l-2.7-5.9l-5.3,4.6v13
		l-2.3-1.1c-3-1.4-3.9,4.1-0.9,4.1h1c0,0.5,0,1.1,0.5,1.4c-0.5,0.2-0.7,1.1,0,1.6c-0.7,0.2-0.7,1.4-0.2,1.8
		c-0.7,0.9-0.7,3.2,1.4,3.7c1.6,0.5,2.7-1.4,3-2.3l17.8,5.5c2.5,0.7,4.3,0.2,6.4-1.6l4.6-4.1c-0.7,2.7,0.5,5,2.5,5.9
		c0,0-0.2,2.5-0.2,3.4h-46.7V-1.3c0-2.7-0.7-5.5-1.8-8H186.3z M205.5,1.7c-0.9,1.8-0.9,4.1,0.2,5.9L205,8.3
		c-3.4-0.5-4.8-5.5-4.8-5.5v1.4c-2.1-0.7-3.2-2.5-3.2-4.8c0.7,0.5,1.6,0.7,2.5,0.9l0.2-1.4c-2.3-0.5-3.7-1.8-4.3-3.7h-0.2h1.4
		c1.4,0,2.7-0.2,3.9-0.7c0.9,1.4,2.7,2.3,4.3,2.5C204.8-1.5,204.8,0.1,205.5,1.7 M210.6,15.2c-0.2,0.5-0.7,0.9-0.7,1.6l-1.8,1.8
		c0.5-2.7-1.4-5.9-3.2-7.3l2.1-2.1l0.5,0.5C206.4,11.3,207.8,14.7,210.6,15.2 M201.6,14.2l1.6-1.6c1.6,1.4,3.7,4.3,3,7.3l-1.6,1.6
		c-0.5,0.2-0.7,0.7-1.1,0.9C204.4,19.7,203,15.8,201.6,14.2 M198.2,15.4c0.7,0,1.1,0,1.8-0.2c1.1,1.6,2.1,5.5,0.7,8
		c-0.7,0-1.6-0.2-2.3-0.2l-0.7-0.2C198.9,20.9,198.7,17.4,198.2,15.4 M194.3,14.9l2.3,0.2c0.5,1.8,0.2,5-1.1,6.6l-2.5-0.6
		C194.1,19.7,194.6,16.5,194.3,14.9 M189.8,14.5l2.7,0.2c0.2,1.4-0.2,4.6-1.1,5.9l-2.7-0.7C189.5,18.6,190,16.1,189.8,14.5
		 M179,13.8c-1.1,0.5-1.8-0.5-1.8-1.1c2.5-0.9,3.4-0.2,4.1,0.2c0.7,0.5,1.1,1.6,2.1,2.3c-0.2,0.9-0.5,2.5-0.9,3.4
		c-2.5-0.7-2.5-2.7-1.6-4.1C180.6,13.6,180.2,13.3,179,13.8 M177.4,18.6c0,0,0.7,0.2,1.6,0.5c0,0.5-0.5,0.9-1.1,0.9
		C177.4,19.7,177.2,19,177.4,18.6 M174.9,11.5c-0.7-0.5-0.2-1.4,0.2-1.4c0.7,0,1.8,0.9,2.7,1.4C178.1,11.5,175.4,11.7,174.9,11.5
		 M177.4,16.5c0.5,0.5,2.1,0.2,2.1,0.2v0.2C179,18.1,177,17.7,177.4,16.5 M179.7,15.6c-1.1,0.5-2.3-0.2-2.1-0.9
		c0.5,0.5,2.1,0.2,2.1,0.2V15.6z M181.3,2.4l-2.3,8l0.7-12.8l3.4-3l1.8,3.7l-4.3,12.6l1.1-8.5C181.8,1.7,181.3,1.7,181.3,2.4
		 M181.5,12c0,0,2.5-0.2,3.2,0.2c0.5,0.2,0.2,1.1-0.5,0.9C183.4,12.9,181.5,12,181.5,12 M185.2,13.8l2.7,0.2
		c0.2,1.4-0.2,3.9-1.1,5.3l-2.5-0.5C185,17.2,185,15.6,185.2,13.8 M227.9,49.2c0,6.2-2.7,10.7-7.5,13.5l1.6-3.4h-1.6l-2.3,4.3
		c-2.3,0.9-4.8,1.4-7.5,1.4c-8.7,0-11,0.5-14.2,3.4c-3.2-3.2-5.5-3.4-14.2-3.4c-2.7,0-5.3-0.5-7.5-1.4l2.3-4.3h-1.6l-1.8,3.7
		l-1.4-0.7l1.6-3.2h-1.6l-1.1,2.3c-3.7-2.7-5.9-6.9-5.9-12.3V29.7h62.9v19.5H227.9z M229.8-9.3c-0.9,2.5-1.8,5.3-1.8,8v29.5h-3.4
		c-1.6-1.6-3-6.6-3-6.6c-0.9,1.8,0.2,5.5,1.1,6.6h-4.3c-1.1-1.4-2.1-6.6-2.1-6.6c-1.4,1.6-0.5,5.5,0.2,6.6h-3
		c-0.2-2.1,0.5-4.3,0.5-4.3c-1.6-0.2-3.2-1.1-3.2-2.7c0.7,0.7,1.1,0.7,2.1,0.7L214,21c-4.1,0.2-4.3-4.3-1.1-6.6
		c-3.2,0-5.7-1.8-4.6-5.3c-2.3-1.1-3.2-5.3-1.4-6.9c-1.1-1.4-1.4-4.1-0.7-5.7c-1.6,0-3.4-0.7-4.6-1.8h-0.2c2.1-0.9,3.9-2.1,5-3.9
		h23.4V-9.3z M217.2-23.7c-3.4,0.7-6.4,4.8-8.7,8.5l-0.2,0.5h-2.5v0.5c-0.2,3-3,6.9-9.1,6.9c-2.7,0-5-0.9-6.4-2.1
		c-1.4-0.9-2.1-2.3-2.5-3.4c-0.2-0.5-0.2-0.9-0.2-1.4v-0.5H185l-0.2-0.5c-2.5-3.7-5.3-8-8.7-8.5l9.4-5.5l11.4,6.2l11.4-6.2
		L217.2-23.7L217.2-23.7z M206.7-31.7l-9.1,4.8v-19.4l12.3-4.1L206.7-31.7L206.7-31.7z M196.6-48.4l-13.5-5.3c1.1-2.7,6.4-5,13.5-5
		c7.1,0,12.3,2.3,13.5,5L196.6-48.4z M226.6,9.7V8.3c-4.6,0-5.5-5.5-5.5-5.5C219.7,6.7,223.1,9.7,226.6,9.7 M220.9,18.8l-0.5-1.4
		c-3.9,0.9-5.9-5-5.9-5C213.3,16.5,217.6,19.7,220.9,18.8 M223.6,13.1c-4.6,0.7-6.6-4.6-6.6-4.6c-0.5,3,1.4,5.9,4.3,6.2
		c-0.7,3.9,3,5.7,5.9,4.3l-0.5-1.4C224.3,18.6,221.8,15.8,223.6,13.1 M220.9-2.2v-1.4c-6.2-1.4-5.5-5.5-5.5-5.5
		C214-5.2,217.4-2.4,220.9-2.2"/>
	<path d="M182.2,59.3l-2.3,4.3h1.6l2.3-4.3H182.2z M185.4,59.3l-2.3,4.3h1.9l2.1-4.3H185.4z M198.7,59.3l-2.3,4.3h1.6l2.3-4.3H198.7
		z M201.9,59.3l-2.1,4.3h1.6l2.1-4.3H201.9z M195.2,59.3l-2.1,4.3h1.6l2.3-4.3H195.2z M214.7,63.6h1.6l2.3-4.3h-1.8L214.7,63.6z
		 M188.6,59.3l-2.1,4.3h1.6l2.3-4.3H188.6z M192,59.3l-2.3,4.3h1.8l2.1-4.3H192z M184.5,35.3c-0.2,0-0.5,0.2-0.5,0.7
		s0.2,0.7,0.5,0.7c0.2,0,0.7-0.2,0.7-0.7C185.2,35.7,185,35.3,184.5,35.3"/>
	<path d="M196.6-64.6c6.9,0,12.1,2.3,15.1,4.6c0,0,0.9-5.5,3.9-10.1l-5.5,0.7l-2.7-6.2l-5.5,3l-5.3-5.3l-5.3,5.3l-5.5-2.7l-2.7,6.2
		l-5.5-0.7c3,4.8,3.9,10.1,3.9,10.1C184.5-62.3,189.8-64.6,196.6-64.6 M183.8-67.1l2.7-5.5l4.8,2.5l5.3-5.3l5.3,5.3l4.8-2.5l2.5,5.5
		l3.2-0.5c-0.9,1.6-1.4,3-2.1,4.8c-3.4-2.1-8.7-3.7-13.9-3.7c-5.3,0-10.5,1.6-13.9,3.7c-0.7-1.8-1.1-3.2-2.1-4.8L183.8-67.1z
		 M202.1-75.6c0.7,0,1.6-0.5,1.6-1.4c0-0.7-1.1-3-1.1-3s-1.6,2.1-1.6,3C200.7-76.3,201.4-75.6,202.1-75.6 M211-72.2
		c0.7,0.5,1.6,0,1.8-0.7c0.5-0.7,0.2-3.2,0.2-3.2s-2.3,1.1-2.7,1.8C210.1-73.6,210.3-72.6,211-72.2 M191.1-75.6
		c0.9,0,1.4-0.7,1.4-1.6c0-0.7-1.8-2.7-1.8-2.7s-1.4,2.3-1.1,3.2C189.5-76.1,190.2-75.4,191.1-75.6 M182-72.2
		c0.9-0.5,1.1-1.4,0.7-2.1c-0.5-0.7-2.7-1.8-2.7-1.8s-0.2,2.3,0.2,3.2C180.6-72.2,181.3-72,182-72.2 M289.4-23
		c1.8-0.7,3.4-2.5,4.1-4.1c-4.8-0.7-17.8-6.2-28.4-1.6c3.9-3.7,7.5-4.3,7.8-9.6c1.6,1.1,4.3,1.8,5.9-0.9c-1.1-3.2-3.9-0.7-4.3-1.6
		c-0.5-1.1,3.4,0.5,4.3-3.9c-3.2-1.1-4.1,1.4-4.6,0.9s2.1-1.6,0.2-5c-3.2,1.8-1.6,4.1-2.3,4.3c-0.9,0.2-0.2-2.3-3.7-2.1
		c-0.5,3.9,3.4,3.9,2.7,4.6c-0.7,0.7-1.8-2.3-4.3-0.7c0,3.2,2.5,4.8,5.3,4.1c-0.5,5.9-5.9,4.8-9.8,11.4c8.5,4.3,12.3,12.1,17.8,17.4
		c1.8-1.1,4.8-6.6,4.8-6.6c5.7,4.3,9.8,0,9.8,0C292.4-18.9,292.4-20.3,289.4-23 M281-22.1c0.7,1.4,1.8,5.9-1.1,9.4
		c-3.2-6.4-7.5-11.9-11.2-14.2c-0.7-0.5,0.5-1.4,2.5-1.6c6.6-1.1,14.4,1.6,18.1,2.5c-1.6,1.4-3.2,1.8-4.8,2.1
		c2.7,2.3,4.6,4.1,5.9,6.2C288.1-17.1,286.7-18.7,281-22.1"/>
	<path d="M195,81.9l-3.7-0.2l-0.5,1.4h0.5c0.2,0,0.2-0.2,0.2-0.5c0,0,0.7-0.2,1.4,0l1.6,0.2c-0.9,1.8-3.2,3.7-3.2,5
		c0,0.7,0.7,0.9,1.1,0.7c0.7,0,0.9-0.5,1.1-1.4c0.5-1.8,1.4-3.2,2.1-5.5L195,81.9z M197.5,84.2v-1.1h3.2l-0.2-1.4
		c-0.9,0-2.3,0.2-3.4,0.2l-0.2,2.5c1.6,0,2.5,0.7,2.5,2.1c0,0.7-0.5,1.6-1.1,1.8h-0.5c-0.2-0.2,0-0.5,0-0.9s-0.5-0.7-0.9-0.7
		c-0.5,0-0.7,0.5-0.7,0.9c0,0.9,1.4,1.1,2.1,1.1c1.4,0,2.7-0.7,2.7-2.3C201.2,84.7,199.1,84.2,197.5,84.2 M204.6,81.7
		c-1.1,0-2.1,0.9-2.1,2.1c0,1.8,2.1,2.5,3.4,1.8c0.2,1.4,0,2.5-0.7,2.5c-0.5,0-0.5-0.5-0.5-0.7c-0.2-0.5-0.5-0.7-0.9-0.5
		c-0.7,0-0.7,0.5-0.7,0.7c0.2,0.7,1.1,0.7,1.6,0.7c1.8-0.2,2.7-1.6,2.7-3.2C207.6,83.3,206.4,81.7,204.6,81.7 M205.3,85.1
		c-1.1,0-1.4-1.8-1.4-2.7c0-0.2,0.2-0.7,0.5-0.7c1.1,0,1.4,2.5,1.4,3.2C205.8,85.1,205.5,85.1,205.3,85.1"/>
	<path d="M188.6,81.2c-0.2,0.2-0.9,1.1-2.7,2.5l0.2,0.2c0.2,0,0.5-0.2,0.9-0.5l-0.9,3.4c0,0.2-0.2,0.2-0.5,0.2H185v0.5l3.2,0.7v-0.5
		l-0.5-0.2c-0.2,0-0.2-0.2-0.2-0.5l1.6-5.9h-0.5V81.2z M225.9,76.7v-7.3c-5.5,2.5-12.8,4.6-21.9,5.5l-0.5,2.5c0.7,0,1.8,0.2,3,0.2
		c-3.4,0.5-7.8,0.7-10.1,0.7c-2.5,0-6.9-0.2-10.3-0.7c1.4,0,2.3-0.2,3-0.2l-0.5-2.5c-9.1-0.9-16.2-3-21.9-5.5v7.3l-7.5,3.2
		c5.7,3,12.1,5.3,19.7,7.3l-0.9,3c4.3,1.1,11.2,2.5,18.3,2.5s13.9-1.4,18.3-2.5l-0.9-3c7.5-1.8,13.9-4.3,19.7-7.3L225.9,76.7z
		 M163.7,80.1l5-2.1v-5.9c3.2,1.4,7.5,2.5,13.7,3.9l-3,9.4C173.3,84,168,81.9,163.7,80.1 M196.6,90.8c-5.7,0-11.4-0.9-16.2-2.1
		l3-9.8c2.1,0.5,7.1,1.1,13.3,1.1c5.9,0,11.2-0.7,13.3-1.1l3,9.8C208,90.2,202.3,90.8,196.6,90.8 M213.5,85.4l-3-9.4
		c6.2-1.4,10.5-2.5,13.7-3.9V78l5,2.1C225.2,81.9,219.9,84,213.5,85.4 M108.6-16.8c0,0,3,5.5,4.8,6.6c5.3-5.3,9.1-13,17.8-17.4
		c-4.1-6.6-9.6-5.5-9.8-11.4c2.5,0.7,5-0.9,5.3-4.1c-2.7-1.6-3.7,1.4-4.3,0.7c-0.7-0.7,3.2-0.7,2.7-4.6c-3.7,0-3,2.5-3.9,2.1
		c-0.7-0.2,0.9-2.3-2.3-4.3c-1.8,3.4,0.7,4.3,0.2,5s-1.6-2.1-4.6-0.9c0.9,4.1,4.8,2.5,4.3,3.9c-0.5,0.9-3.2-1.8-4.1,1.6
		c1.6,2.7,4.3,2.1,5.9,0.9c0.5,5.5,3.9,5.9,7.8,9.6c-10.5-4.3-23.5,0.9-28.4,1.6c0.7,1.6,2.3,3.4,4.1,4.1c-3,2.7-3,4.3-5,6.4
		C98.8-16.8,102.9-12.5,108.6-16.8 M102.6-17.8c1.4-2.1,3.4-4.1,5.9-6.2c-1.8-0.2-3.2-0.7-4.8-2.1c3.7-0.9,11.4-3.7,18.1-2.5
		c2.1,0.2,3.4,1.1,2.5,1.6c-3.4,2.3-8,7.8-11.2,14.2c-2.7-3.4-1.6-8-1.1-9.4C106.5-18.7,105.2-17.1,102.6-17.8"/>
	<path d="M192-21v3.2c1.1-1.4,3.2-1.1,3.2-1.1v4.6c0,0,0,2.3-0.9,3.2h4.6c-0.7-0.9-0.9-3.2-0.9-3.2v-4.6c0,0,2.1-0.2,3.2,1.1V-21
		H192z"/>
	<path class="st3" d="M331.3-10.9v50.3"/>
</g>
</svg>
