<?xml version="1.0" encoding="utf-8"?>
<!-- Generator: Adobe Illustrator 19.0.0, SVG Export Plug-In . SVG Version: 6.00 Build 0)  -->
<svg version="1.1" id="Слой_1" xmlns="http://www.w3.org/2000/svg" xmlns:xlink="http://www.w3.org/1999/xlink" x="0px" y="0px"
	 viewBox="-257 358 96 78" style="enable-background:new -257 358 96 78;" xml:space="preserve">
<style type="text/css">
	.st0{fill:#FFFFFF;}
	.st1{fill:#667587;}
	.st2{fill:#0099FA;}
</style>
<title>Bank</title>
<g id="Layer_2">
	<g id="Desktop">
		<g id="bank">
			<g>
				<path class="st0" d="M-168,426h-4v-37h10v-6.6l-47.1-23.4l-46.9,23.4v6.6h9v37h-3"/>
				<path class="st1" d="M-168,427h-4c-0.6,0-1-0.4-1-1v-37c0-0.6,0.4-1,1-1h9v-5l-46.1-22.9L-255,383v5h8c0.6,0,1,0.4,1,1v37
					c0,0.6-0.4,1-1,1h-3v-2h2v-35h-8c-0.6,0-1-0.4-1-1v-6.6c0-0.4,0.2-0.7,0.6-0.9l46.9-23.4c0.3-0.1,0.6-0.1,0.9,0l47.1,23.4
					c0.3,0.2,0.6,0.5,0.6,0.9v6.6c0,0.6-0.4,1-1,1h-9v35h3V427z"/>
			</g>
			<g>
				<path class="st0" d="M-232,393h4v30h-4V393z M-211,393h4v30h-4V393z M-190,393h4v30h-4V393z"/>
				<path class="st1" d="M-186,424h-4c-0.6,0-1-0.4-1-1v-30c0-0.6,0.4-1,1-1h4c0.6,0,1,0.4,1,1v30C-185,423.6-185.4,424-186,424z
					 M-189,422h2v-28h-2V422z M-207,424h-4c-0.6,0-1-0.4-1-1v-30c0-0.6,0.4-1,1-1h4c0.6,0,1,0.4,1,1v30
					C-206,423.6-206.4,424-207,424z M-210,422h2v-28h-2V422z M-228,424h-4c-0.6,0-1-0.4-1-1v-30c0-0.6,0.4-1,1-1h4c0.6,0,1,0.4,1,1
					v30C-227,423.6-227.4,424-228,424z M-231,422h2v-28h-2V422z"/>
			</g>
			<g>
				<path class="st0" d="M-209.2,381.7c-3.5,0.1-6.4-2.7-6.5-6.2c-0.1-3.5,2.7-6.4,6.2-6.5c3.5-0.1,6.4,2.7,6.5,6.2
					c0,0.1,0,0.1,0,0.2C-203,378.8-205.7,381.7-209.2,381.7L-209.2,381.7z"/>
				<path class="st1" d="M-209.4,382.7c-1.9,0-3.7-0.7-5.1-2c-1.4-1.4-2.2-3.2-2.3-5.1c-0.1-4.1,3.1-7.4,7.2-7.6
					c4.1-0.1,7.4,3.1,7.6,7.2l0,0.2c0,3.9-3.1,7.2-7,7.3c0,0-0.1,0-0.1,0C-209.2,382.7-209.3,382.7-209.4,382.7z M-209.4,370
					c0,0-0.1,0-0.1,0c-3,0.1-5.3,2.5-5.2,5.5c0,1.4,0.6,2.8,1.7,3.7c1,1,2.3,1.5,3.7,1.5c0,0,0.1,0,0.1,0c2.9,0,5.2-2.4,5.2-5.3
					l0-0.2c0-1.4-0.6-2.8-1.7-3.7C-206.7,370.5-208,370-209.4,370z"/>
			</g>
			<path class="st2" d="M-205.4,371.5c1,1,1.6,2.4,1.6,3.9c0,3-2.3,5.4-5.3,5.5l0,0c-1.6,0-3.1-0.7-4.1-2"/>
			<rect x="-253" y="429" class="st1" width="87" height="2"/>
			<rect x="-255" y="434" class="st1" width="91" height="2"/>
			<rect x="-235" y="388" class="st1" width="10" height="2"/>
			<rect x="-214" y="388" class="st1" width="10" height="2"/>
			<rect x="-193" y="388" class="st1" width="10" height="2"/>
			<rect x="-247" y="425" class="st1" width="75" height="2"/>
		</g>
	</g>
</g>
</svg>
