<?xml version="1.0" encoding="utf-8"?>
<!-- Generator: Adobe Illustrator 19.0.0, SVG Export Plug-In . SVG Version: 6.00 Build 0)  -->
<svg version="1.1" id="Слой_1" xmlns="http://www.w3.org/2000/svg" xmlns:xlink="http://www.w3.org/1999/xlink" x="0px" y="0px"
	 viewBox="-72.8 274.8 230 230" style="enable-background:new -72.8 274.8 230 230;" xml:space="preserve">
<style type="text/css">
	.st0{fill:#F4F7FA;}
	.st1{fill:#DFE6EE;}
	.st2{fill:none;stroke:#354050;stroke-width:1.8;stroke-miterlimit:10;}
	.st3{fill:#818A8B;}
	.st4{fill:#BCC1C4;}
	.st5{fill:#354050;}
	.st6{fill:none;stroke:#FFFFFF;stroke-width:1.24;stroke-linecap:round;stroke-miterlimit:10;}
	.st7{fill:#FFFFFF;}
	.st8{fill:#5F96D7;}
	.st9{fill:none;stroke:#354050;stroke-width:3.37;stroke-linecap:round;stroke-miterlimit:10;}
	.st10{fill:none;stroke:#354050;stroke-width:3.37;stroke-miterlimit:10;}
	.st11{clip-path:url(#SVGID_2_);}
	.st12{fill:none;stroke:#BCC1C4;stroke-width:2.49;stroke-miterlimit:10;}
	.st13{fill:none;stroke:#354050;stroke-width:3.73;stroke-linecap:round;stroke-miterlimit:10;}
	.st14{fill:none;stroke:#354050;stroke-width:1.86;stroke-linecap:round;stroke-miterlimit:10;}
	.st15{fill:none;stroke:#BCC1C4;stroke-width:2.38;stroke-miterlimit:10;}
</style>
<title>Step2</title>
<g id="Layer_2">
	<g id="Desktop">
		<path class="st0" d="M42.2,503.8c-63,0-114-51-114-114s51-114,114-114s114,51,114,114l0,0C156.2,452.7,105.2,503.7,42.2,503.8z"/>
		<path class="st1" d="M42.2,276.8c62.4,0,113,50.6,113,113c0,30-11.9,58.7-33.1,79.9C78.4,514.2,6.9,514.8-37.7,471
			s-45.1-115.3-1.4-159.8c0.5-0.5,0.9-0.9,1.4-1.4C-16.5,288.6,12.3,276.7,42.2,276.8 M42.2,274.8c-63.5,0-115,51.5-115,115
			s51.5,115,115,115s115-51.5,115-115S105.8,274.8,42.2,274.8z"/>
		<circle class="st2" cx="90.9" cy="349.1" r="11.2"/>
		<circle class="st3" cx="90.9" cy="349.1" r="10.3"/>
		<circle class="st4" cx="90.9" cy="349.1" r="8.7"/>
		<circle class="st5" cx="90.9" cy="349.1" r="3.9"/>
		<path class="st6" d="M82.4,347.9c0-4,3.3-7.3,7.3-7.3l0,0"/>
		<g id="_Group_">
			<path class="st7" d="M93.2,385.8v-27.4c0-2.9,2.3-5.2,5.1-5.3c0,0,0.1,0,0.1,0c1.2,0.1,2.4,0.6,3.3,1.5c0.9,0.9,1.5,2.2,1.5,3.6
				v17.7h0.8c0-2.8,2.2-5,5-5l0,0c2.8,0,5,2.2,5,5c0-2.8,2.2-5,5-5s5,2.2,5,5c0-2.8,2.2-5,5-5c0.1,0,0.2,0,0.4,0
				c2.7,0.3,4.7,2.6,4.7,5.3v25.7c0,2.8-2.2,5-5,5h-31c-2.5,0-4.9-4.2-4.9-4.2l-7.6-16.6c-0.9-1.9-0.6-4.2,0.8-5.8l6.3-7.5
				L93.2,385.8z"/>
			<path class="st8" d="M91.2,410.1c0-1.9,1.5-3.4,3.4-3.4h38.3c1.9,0,3.4,1.5,3.4,3.4v8.3c0,1.9-1.5,3.4-3.4,3.4H94.6
				c-1.9,0-3.4-1.5-3.4-3.4V410.1z"/>
			<path class="st9" d="M92.7,386.3v-27.6c0-2.9,2.3-5.2,5.1-5.3c0,0,0.1,0,0.1,0c2.7,0.1,4.8,2.3,4.8,5v15.9"/>
			<path class="st10" d="M102.8,375.9c0-2.8,3.1-5,5.9-5c2.7,0,5,2.3,5,5"/>
			<path class="st9" d="M128.7,406.9c2.8,0,5-2.2,5-5v-25.5c0-2.9-2.3-5.2-5.1-5.3c0,0-0.1,0-0.1,0c-2.7,0.1-4.8,2.3-4.8,5v6.2"/>
			<path class="st9" d="M97.8,407c-2.5,0-4.6-1.8-5-4.2L85,387.1c-1.6-3.2-0.8-7.1,1.9-9.4l5.8-5.1"/>
			<path class="st10" d="M130.1,407.3h3.3c1.9,0,3.4,1.5,3.4,3.4v8.3c0,1.9-1.5,3.4-3.4,3.4H95.1c-1.9,0-3.4-1.5-3.4-3.4v-8.3
				c0-1.9,1.5-3.4,3.4-3.4H130.1L130.1,407.3z"/>
			<path class="st9" d="M113.7,382.3v-6.2c0-2.5,1.8-4.6,4.2-5.2c2.8-0.5,5.4,1.4,5.8,4.1c0,0.3,0.1,0.6,0.1,0.9"/>
			<polyline class="st9" points="102.7,374.3 102.7,375.9 102.7,376.8 102.7,382.3 			"/>
		</g>
		<g>
			<defs>
				<circle id="SVGID_1_" cx="42.2" cy="389.8" r="115"/>
			</defs>
			<clipPath id="SVGID_2_">
				<use xlink:href="#SVGID_1_"  style="overflow:visible;"/>
			</clipPath>
			<g class="st11">
				<rect x="-136.8" y="262.8" class="st12" width="179" height="269"/>
				<rect x="-149.8" y="262.8" class="st12" width="179" height="269"/>
				<path class="st8" d="M97.6,422.8h34.2c0,55.2-44.8,100-100,100H-2.4C52.8,522.8,97.6,478,97.6,422.8z"/>
				<path class="st13" d="M97.6,422.8c0,55.2-44.8,100-100,100h34.2c55.2,0,100-44.8,100-100l0,0H97.6z"/>
			</g>
		</g>
		<line class="st14" x1="91.2" y1="334.8" x2="91.2" y2="326.8"/>
		<line class="st14" x1="91.2" y1="324.8" x2="91.2" y2="323.8"/>
		<line class="st14" x1="98.5" y1="336.6" x2="102.1" y2="333"/>
		<line class="st14" x1="104.3" y1="330.8" x2="104.7" y2="330.4"/>
		<line class="st14" x1="82.3" y1="336.6" x2="78.7" y2="333"/>
		<line class="st14" x1="76.6" y1="330.8" x2="76.1" y2="330.4"/>
		<line class="st6" x1="92.6" y1="340.6" x2="92.6" y2="340.6"/>
		<path class="st12" d="M-1.1,463.1c0,1.6,1.6,3.7,1.6,3.7h-24.1c-1.4,0-3.1-1.8-3.1-3.7v-0.2c0.1-1.7,1.4-3.1,3.1-3.1H0.4
			C-0.4,460.7-0.9,461.8-1.1,463.1z"/>
		<circle class="st15" cx="6.6" cy="463" r="5.6"/>
	</g>
</g>
</svg>
