<?xml version="1.0" encoding="utf-8"?>
<!-- Generator: Adobe Illustrator 19.0.0, SVG Export Plug-In . SVG Version: 6.00 Build 0)  -->
<svg version="1.1" id="Layer_2" xmlns="http://www.w3.org/2000/svg" xmlns:xlink="http://www.w3.org/1999/xlink" x="0px" y="0px"
	 viewBox="-294 384.7 22.1 24.3" style="enable-background:new -294 384.7 22.1 24.3;" xml:space="preserve">
<g>
	<g>
		<path d="M-285.8,409h-7c-0.6,0-1-0.4-1-1v-10c0-0.6,0.4-1,1-1s1,0.4,1,1v9h5v-8c0-2,1.7-3,3-3h10c0-0.1,0-0.3,0-0.4l0-0.6h-18
			c-1.3,0-2-1-2-2v-4c0-0.5,0.3-0.9,0.8-1l13-3c0.5-0.1,1.1,0.2,1.2,0.7c0.1,0.5-0.2,1.1-0.8,1.2l-12.2,2.8v3.2h19c0.6,0,1,0.4,1,1
			l0,1.5c0,0.5,0,1.3-0.6,1.9c-0.2,0.2-0.7,0.5-1.4,0.5h-10c-0.3,0-1,0.3-1,1v9C-284.8,408.6-285.2,409-285.8,409z"/>
	</g>
	<g>
		<path d="M-285.8,395c-0.6,0-1-0.4-1-1v-3c0-0.6,0.4-1,1-1s1,0.4,1,1v3C-284.8,394.6-285.2,395-285.8,395z"/>
	</g>
</g>
</svg>
