<?xml version="1.0" encoding="utf-8"?>
<!-- Generator: Adobe Illustrator 19.0.0, SVG Export Plug-In . SVG Version: 6.00 Build 0)  -->
<svg version="1.1" id="Слой_1" xmlns="http://www.w3.org/2000/svg" xmlns:xlink="http://www.w3.org/1999/xlink" x="0px" y="0px"
	 viewBox="-294 381 22 32" style="enable-background:new -294 381 22 32;" xml:space="preserve">
<style type="text/css">
	.st0{fill:#507FB5;}
</style>
<title>ico_vertical_shower</title>
<g id="Layer_2">
	<g id="Layer_2-2">
		<g>
			<circle class="st0" cx="-285" cy="389" r="1"/>
		</g>
		<g>
			<circle class="st0" cx="-281" cy="389" r="1"/>
		</g>
		<g>
			<circle class="st0" cx="-281" cy="384" r="1"/>
		</g>
		<g>
			<circle class="st0" cx="-285" cy="385" r="1"/>
		</g>
		<g>
			<circle class="st0" cx="-277" cy="389" r="1"/>
		</g>
		<g>
			<circle class="st0" cx="-277" cy="383" r="1"/>
		</g>
		<g>
			<circle class="st0" cx="-273" cy="389" r="1"/>
		</g>
		<g>
			<circle class="st0" cx="-281" cy="394" r="1"/>
		</g>
		<g>
			<circle class="st0" cx="-285" cy="393" r="1"/>
		</g>
		<g>
			<circle class="st0" cx="-277" cy="395" r="1"/>
		</g>
		<g>
			<path class="st0" d="M-293,413c-0.6,0-1-0.4-1-1v-30c0-0.6,0.4-1,1-1s1,0.4,1,1v30C-292,412.6-292.4,413-293,413z"/>
		</g>
		<g>
			<path class="st0" d="M-290,395c-0.6,0-1-0.4-1-1v-10c0-0.6,0.4-1,1-1s1,0.4,1,1v10C-289,394.6-289.4,395-290,395z"/>
		</g>
		<g>
			<circle class="st0" cx="-285" cy="405" r="1"/>
		</g>
		<g>
			<circle class="st0" cx="-281" cy="405" r="1"/>
		</g>
		<g>
			<circle class="st0" cx="-281" cy="400" r="1"/>
		</g>
		<g>
			<circle class="st0" cx="-285" cy="401" r="1"/>
		</g>
		<g>
			<circle class="st0" cx="-277" cy="405" r="1"/>
		</g>
		<g>
			<circle class="st0" cx="-277" cy="399" r="1"/>
		</g>
		<g>
			<circle class="st0" cx="-273" cy="405" r="1"/>
		</g>
		<g>
			<circle class="st0" cx="-281" cy="410" r="1"/>
		</g>
		<g>
			<circle class="st0" cx="-285" cy="409" r="1"/>
		</g>
		<g>
			<circle class="st0" cx="-277" cy="411" r="1"/>
		</g>
		<g>
			<path class="st0" d="M-290,411c-0.6,0-1-0.4-1-1v-10c0-0.6,0.4-1,1-1s1,0.4,1,1v10C-289,410.6-289.4,411-290,411z"/>
		</g>
	</g>
</g>
</svg>
