<?xml version="1.0" encoding="utf-8"?>
<!-- Generator: Adobe Illustrator 19.0.0, SVG Export Plug-In . SVG Version: 6.00 Build 0)  -->
<svg version="1.1" id="Слой_1" xmlns="http://www.w3.org/2000/svg" xmlns:xlink="http://www.w3.org/1999/xlink" x="0px" y="0px"
	 viewBox="-287 382.5 35.8 29.5" style="enable-background:new -287 382.5 35.8 29.5;" xml:space="preserve">
<style type="text/css">
	.st0{fill:#507FB5;}
</style>
<title>ico_steam</title>
<g id="Layer_2">
	<g id="Layer_2-2">
		<g>
			<path class="st0" d="M-262.8,392.5c-0.6,0-1-0.4-1-1c0-3.9-3.1-7-7-7c-3.9,0-7,3.1-7,7c0,0.6-0.4,1-1,1s-1-0.4-1-1c0-5,4-9,9-9
				c5,0,9,4,9,9C-261.8,392-262.2,392.5-262.8,392.5z"/>
		</g>
		<g>
			<path class="st0" d="M-253.8,400c-0.2,0-0.4-0.1-0.6-0.2c-0.4-0.3-0.5-1-0.2-1.4c1.4-1.9,1.4-4.5-0.2-6.3c-1.8-2.1-5-2.3-7-0.6
				c-0.4,0.4-1,0.3-1.4-0.1c-0.4-0.4-0.3-1.1,0.1-1.4c1.4-1.2,3.2-1.8,5.1-1.7c1.9,0.1,3.6,1,4.8,2.4c2.1,2.5,2.2,6.2,0.2,8.8
				C-253.2,399.9-253.5,400-253.8,400z"/>
		</g>
		<g>
			<path class="st0" d="M-284.8,398.4c-0.2,0-0.5-0.1-0.7-0.3c-2-1.9-2.1-5-0.2-7c0.9-1,2.1-1.5,3.4-1.5c1.3,0,2.6,0.4,3.5,1.4
				c0.4,0.4,0.4,1,0,1.4c-0.4,0.4-1,0.4-1.4,0c-0.6-0.5-1.3-0.8-2.1-0.8c-0.8,0-1.5,0.3-2,0.9c-1.1,1.2-1.1,3,0.1,4.1
				c0.4,0.4,0.4,1,0,1.4C-284.2,398.3-284.5,398.4-284.8,398.4z"/>
		</g>
		<g>
			<path class="st0" d="M-270.2,412c-0.6,0-1-0.4-1-1v-12c0-0.6,0.4-1,1-1s1,0.4,1,1v12C-269.2,411.6-269.6,412-270.2,412z"/>
		</g>
		<g>
			<path class="st0" d="M-274.2,408c-0.6,0-1-0.4-1-1v-6c0-0.6,0.4-1,1-1s1,0.4,1,1v6C-273.2,407.6-273.6,408-274.2,408z"/>
		</g>
		<g>
			<path class="st0" d="M-266.2,404c-0.6,0-1-0.4-1-1v-6c0-0.6,0.4-1,1-1s1,0.4,1,1v6C-265.2,403.6-265.6,404-266.2,404z"/>
		</g>
		<g>
			<path class="st0" d="M-266.2,410c-0.6,0-1-0.4-1-1v-2c0-0.6,0.4-1,1-1s1,0.4,1,1v2C-265.2,409.6-265.6,410-266.2,410z"/>
		</g>
	</g>
</g>
</svg>
