<?xml version="1.0" encoding="utf-8"?>
<!-- Generator: Adobe Illustrator 19.0.0, SVG Export Plug-In . SVG Version: 6.00 Build 0)  -->
<svg version="1.1" id="Layer_1" xmlns="http://www.w3.org/2000/svg" xmlns:xlink="http://www.w3.org/1999/xlink" x="0px" y="0px"
	 viewBox="-285 379.7 39.7 34.3" style="enable-background:new -285 379.7 39.7 34.3;" xml:space="preserve">
<style type="text/css">
	.st0{display:none;fill:#FFFFFF;}
	.st1{fill:#2ECC71;}
</style>
<path class="st0" d="M-205,339.7h-91c-3.3,0-6,2.7-6,6v91C-248.5,436.4-205.3,393.2-205,339.7z"/>
<g>
	<path class="st1" d="M-253,413.5h-14c-1.7,0-5-2.6-5-4.4v-14.8h1.1c1.8-1.5,3.4-4.1,5.5-8v-4.2l0.1-0.3c0.7-1.4,2.2-1.9,3.9-1.2
		c2.7,1.1,5.8,5.2,4.8,11h6.5c2.7,0,4.2,1.6,4.6,3.2c0.2,1.1-0.1,2.5-1.2,3.5c0.4,0.9,0.5,1.8,0.3,2.8c-0.2,1-0.7,1.7-1.5,2.3
		c0.2,0.6,0.2,1.4,0.1,2.1c-0.2,0.9-0.6,1.8-1.2,2.4c0.4,0.9,0.6,1.9,0.3,2.9C-249.1,412.1-250.5,413.5-253,413.5z M-266.9,410.5
		h13.9c0.4,0,1.2-0.1,1.4-0.6c0.1-0.3,0-0.8-0.5-1.1l-3-1.9l3.5-0.8c0.5-0.1,0.8-0.6,0.9-1.1c0.1-0.5-0.1-0.9-0.2-1l-3-2l3.6-0.7
		c0.9-0.2,1-0.6,1-0.8c0.1-0.5-0.2-1.1-0.4-1.3l-2.2-1.6l2.5-1c0.7-0.3,1.1-0.7,1-1.1c-0.1-0.4-0.6-0.8-1.6-0.8h-10.4l0.6-1.9
		c1.4-4.4-0.3-7.1-1.1-8.1c-0.5-0.7-1.1-1-1.4-1.2v3.6l-0.2,0.3c-2.4,4.4-4.1,7.3-6.4,9.2v12.2
		C-268.6,409.4-267.4,410.3-266.9,410.5z"/>
</g>
<g>
	<path class="st1" d="M-272.9,414.2h-8.2c-1.7,0-3.8-1.6-3.8-3.5v-16.1c0-2,2-3.4,3.8-3.4h8.2c1.9,0,3.8,1.8,3.8,3.6v16.1
		C-269.1,412.8-271.1,414.2-272.9,414.2z M-281.1,394.2c-0.3,0-0.7,0.3-0.8,0.4l0,16.1c0.1,0.2,0.6,0.5,0.8,0.5h8.2
		c0.3,0,0.7-0.2,0.8-0.4v-16c-0.1-0.2-0.5-0.6-0.8-0.6H-281.1z"/>
</g>
<g>
	<path class="st1" d="M-249,398.7h-6c-0.6,0-1-0.4-1-1c0-0.6,0.4-1,1-1h6c0.6,0,1,0.4,1,1C-248,398.3-248.4,398.7-249,398.7z"/>
</g>
<g>
	<path class="st1" d="M-250.5,403.7h-4.5c-0.6,0-1-0.4-1-1s0.4-1,1-1h4.5c0.6,0,1,0.4,1,1S-249.9,403.7-250.5,403.7z"/>
</g>
<g>
	<path class="st1" d="M-251.7,408.7h-3.3c-0.6,0-1-0.4-1-1s0.4-1,1-1h3.3c0.6,0,1,0.4,1,1S-251.1,408.7-251.7,408.7z"/>
</g>
</svg>
