<?xml version="1.0" encoding="utf-8"?>
<!-- Generator: Adobe Illustrator 19.0.0, SVG Export Plug-In . SVG Version: 6.00 Build 0)  -->
<svg version="1.1" id="Слой_1" xmlns="http://www.w3.org/2000/svg" xmlns:xlink="http://www.w3.org/1999/xlink" x="0px" y="0px"
	 viewBox="-151 352 309 89" style="enable-background:new -151 352 309 89;" xml:space="preserve">
<style type="text/css">
	.st0{fill:#999999;}
</style>
<title>pallet3</title>
<g id="Layer_2">
	<g id="Layer_2-2">
		<g>
			<path class="st0" d="M145.7,441h-285.3c-6.5,0-11.5-6-11.5-14v-61c0-8,4.9-14,11.5-14h285.3c6.8,0,12.3,6.3,12.3,14v61
				C158,434.7,152.5,441,145.7,441z M-139.5,356c-4.2,0-7.5,4.3-7.5,10v61c0,5.7,3.2,10,7.5,10h285.3c4.5,0,8.3-4.6,8.3-10v-61
				c0-5.4-3.8-10-8.3-10H-139.5z"/>
		</g>
		<g>
			<rect x="-149" y="372" class="st0" width="305" height="2"/>
		</g>
		<g>
			<rect x="-149" y="421" class="st0" width="305" height="2"/>
		</g>
		<g>
			<path class="st0" d="M135,405h-264c-5.5,0-10-4.5-10-10c0-5.5,4.5-10,10-10h264c5.5,0,10,4.5,10,10C145,400.5,140.5,405,135,405z
				 M-129,387c-4.4,0-8,3.6-8,8s3.6,8,8,8h264c4.4,0,8-3.6,8-8s-3.6-8-8-8H-129z"/>
		</g>
	</g>
</g>
</svg>
